(footprint "D_SOD-323" (version 20211014) (generator pcbnew)
  (layer "F.Cu")
  (tedit 6220B3C5)
  (descr "SOD-323")
  (tags "SOD-323")
  (attr smd)
  (fp_text reference "REF**" (at 0 -1.85) (layer "F.SilkS")
    (effects (font (size 1 1) (thickness 0.15)))
    (tstamp 7b485fa8-406a-42d5-9a01-13ae76ec07b5)
  )
  (fp_text value "D_SOD-323" (at 0.1 1.9) (layer "F.Fab")
    (effects (font (size 1 1) (thickness 0.15)))
    (tstamp 422a6702-d1c1-4e76-898e-ec20aaee30c2)
  )
  (fp_text user "${REFERENCE}" (at 0 -1.85) (layer "F.Fab")
    (effects (font (size 1 1) (thickness 0.15)))
    (tstamp 3d6472eb-4872-48d0-9b65-1b39f6d4a46a)
  )
  (fp_line (start -1.5 -0.85) (end -1.5 0.85) (layer "F.SilkS") (width 0.12) (tstamp 201a8082-80bc-49cb-a857-a9c917ee8418))
  (fp_line (start -1.5 0.85) (end 1.05 0.85) (layer "F.SilkS") (width 0.12) (tstamp 9b774066-2c22-4032-af01-4291adb02340))
  (fp_line (start -1.5 -0.85) (end 1.05 -0.85) (layer "F.SilkS") (width 0.12) (tstamp e325a134-36dc-4151-9d17-8bf13dc78564))
  (fp_line (start -1.6 0.95) (end 1.6 0.95) (layer "F.CrtYd") (width 0.05) (tstamp 3581de8b-daeb-467a-8039-51714599e4ba))
  (fp_line (start 1.6 -0.95) (end 1.6 0.95) (layer "F.CrtYd") (width 0.05) (tstamp 7b1f2f40-abe7-4adb-bfe4-3f1a7f99a0f2))
  (fp_line (start -1.6 -0.95) (end -1.6 0.95) (layer "F.CrtYd") (width 0.05) (tstamp d98b06b1-d759-4372-889f-6ac21114139f))
  (fp_line (start -1.6 -0.95) (end 1.6 -0.95) (layer "F.CrtYd") (width 0.05) (tstamp ddfa4cf0-3486-4284-897b-3a9e51f271d9))
  (fp_line (start -0.3 -0.35) (end -0.3 0.35) (layer "F.Fab") (width 0.1) (tstamp 3adb8c69-132c-478c-b246-f381b0e1424c))
  (fp_line (start 0.9 0.7) (end -0.9 0.7) (layer "F.Fab") (width 0.1) (tstamp 3be2f64a-643b-4527-aaf5-307341a81097))
  (fp_line (start -0.9 0.7) (end -0.9 -0.7) (layer "F.Fab") (width 0.1) (tstamp 59550421-1010-45d2-ae78-ff36e5bca6b7))
  (fp_line (start -0.3 0) (end 0.2 -0.35) (layer "F.Fab") (width 0.1) (tstamp 5c4ddc3a-1b67-4d06-8b43-5f565c9d4f71))
  (fp_line (start -0.9 -0.7) (end 0.9 -0.7) (layer "F.Fab") (width 0.1) (tstamp 7bc13ee4-2194-461b-9242-0d96ebba241b))
  (fp_line (start 0.2 0) (end 0.45 0) (layer "F.Fab") (width 0.1) (tstamp 9a68bf85-c16f-48ee-8e66-0d9ea8ea8b23))
  (fp_line (start -0.3 0) (end -0.5 0) (layer "F.Fab") (width 0.1) (tstamp b027388d-8092-416a-ae2f-62be7825303f))
  (fp_line (start 0.2 0.35) (end -0.3 0) (layer "F.Fab") (width 0.1) (tstamp ccdce88e-24b7-4692-934b-22bb9b0763dc))
  (fp_line (start 0.2 -0.35) (end 0.2 0.35) (layer "F.Fab") (width 0.1) (tstamp e61e3b10-16bb-45fa-9a42-277efd2ec104))
  (fp_line (start 0.9 -0.7) (end 0.9 0.7) (layer "F.Fab") (width 0.1) (tstamp f420833d-9f22-43c2-813c-6543682555e5))
  (pad "1" smd rect (at 1.05 0) (size 0.6 0.45) (layers "F.Cu" "F.Paste" "F.Mask") (tstamp f50538bf-e44a-4d20-ab4a-ccf1e95ea69c))
  (pad "2" smd rect (at -1.05 0) (size 0.6 0.45) (layers "F.Cu" "F.Paste" "F.Mask") (tstamp 555e8fc3-19b4-40e8-abc6-87d7c193534e))
  (model "${KICAD6_3DMODEL_DIR}/Diode_SMD.3dshapes/D_SOD-323.wrl"
    (offset (xyz 0 0 0))
    (scale (xyz 1 1 1))
    (rotate (xyz 0 0 0))
  )
)
