(footprint "L_0402_1005Metric" (version 20211014) (generator pcbnew)
  (layer "F.Cu")
  (tedit 62289232)
  (descr "Inductor SMD 0402 (1005 Metric), square (rectangular) end terminal, IPC_7351 nominal, (Body size source: http://www.tortai-tech.com/upload/download/2011102023233369053.pdf), generated with kicad-footprint-generator")
  (tags "inductor")
  (zone_connect 2)
  (attr smd)
  (fp_text reference "REF**" (at 0 -1.17) (layer "F.SilkS")
    (effects (font (size 1 1) (thickness 0.15)))
    (tstamp 2ba3ed47-5d95-4832-a26e-158e0a930596)
  )
  (fp_text value "L_0402_1005Metric" (at 0 1.17) (layer "F.Fab")
    (effects (font (size 1 1) (thickness 0.15)))
    (tstamp cc073c7c-c548-4ce9-80c7-a7bf9c3b9e38)
  )
  (fp_text user "${REFERENCE}" (at 0 0) (layer "F.Fab")
    (effects (font (size 0.25 0.25) (thickness 0.04)))
    (tstamp aec4e2fa-ae3d-4cbd-8887-fd81c3238312)
  )
  (fp_line (start 0.93 0.47) (end -0.93 0.47) (layer "F.CrtYd") (width 0.05) (tstamp 2c13ac44-cfb8-4a3f-b4e8-9e0dfb7efa85))
  (fp_line (start -0.93 -0.47) (end 0.93 -0.47) (layer "F.CrtYd") (width 0.05) (tstamp 57b7e1ca-3186-40e6-8356-fd308ea14aef))
  (fp_line (start 0.93 -0.47) (end 0.93 0.47) (layer "F.CrtYd") (width 0.05) (tstamp 6682d32a-7b70-4bab-8549-bb0c42bf0c24))
  (fp_line (start -0.93 0.47) (end -0.93 -0.47) (layer "F.CrtYd") (width 0.05) (tstamp c9f8a667-56e5-4553-8ef3-121996891bce))
  (fp_line (start 0.5 -0.25) (end 0.5 0.25) (layer "F.Fab") (width 0.1) (tstamp 0095ac8d-d2b7-4031-97d6-4b2905733b2b))
  (fp_line (start -0.5 0.25) (end -0.5 -0.25) (layer "F.Fab") (width 0.1) (tstamp 5aa753e8-567a-4e75-bce7-ff31c80c2785))
  (fp_line (start -0.5 -0.25) (end 0.5 -0.25) (layer "F.Fab") (width 0.1) (tstamp b2364ccc-d560-471e-96fb-ac59e9de768a))
  (fp_line (start 0.5 0.25) (end -0.5 0.25) (layer "F.Fab") (width 0.1) (tstamp d0537136-7da2-4491-abd3-53a85e417bf6))
  (pad "1" smd roundrect (at -0.485 0) (size 0.59 0.64) (layers "F.Cu" "F.Paste" "F.Mask") (roundrect_rratio 0.25)
    (zone_connect 1) (tstamp 94bb06f5-aab9-46d1-9441-ab1ef5a45beb))
  (pad "2" smd roundrect (at 0.485 0) (size 0.59 0.64) (layers "F.Cu" "F.Paste" "F.Mask") (roundrect_rratio 0.25)
    (zone_connect 1) (tstamp 4ab551cb-af90-4a28-ada4-ad097cd54376))
  (model "${KICAD6_3DMODEL_DIR}/Inductor_SMD.3dshapes/L_0402_1005Metric.wrl"
    (offset (xyz 0 0 0))
    (scale (xyz 1 1 1))
    (rotate (xyz 0 0 0))
  )
)
