(footprint "PinHeader_1x05_P2.54mm_Vertical" (version 20211014) (generator pcbnew)
  (layer "F.Cu")
  (tedit 6220D552)
  (descr "Through hole straight pin header, 1x05, 2.54mm pitch, single row")
  (tags "Through hole pin header THT 1x05 2.54mm single row")
  (zone_connect 2)
  (attr through_hole)
  (fp_text reference "REF**" (at 0 -2.33) (layer "F.SilkS")
    (effects (font (size 1 1) (thickness 0.15)))
    (tstamp 1d1d1180-d14e-439a-993b-59283a64ff30)
  )
  (fp_text value "PinHeader_1x05_P2.54mm_Vertical" (at 0 12.49) (layer "F.Fab")
    (effects (font (size 1 1) (thickness 0.15)))
    (tstamp dc529472-5f5c-4aee-8587-2ceaebef495d)
  )
  (fp_text user "${REFERENCE}" (at 0 5.08 90) (layer "F.Fab")
    (effects (font (size 1 1) (thickness 0.15)))
    (tstamp 0c063618-eac8-441c-8aa9-fa17b2f6c52c)
  )
  (fp_line (start -1.33 0) (end -1.33 -1.33) (layer "F.SilkS") (width 0.12) (tstamp 3dd68dde-fa6a-4678-8da5-bedcb21224da))
  (fp_line (start -1.33 1.27) (end 1.33 1.27) (layer "F.SilkS") (width 0.12) (tstamp 795cd1df-7fbd-43e5-b8c7-37253d4ed335))
  (fp_line (start -1.33 11.49) (end 1.33 11.49) (layer "F.SilkS") (width 0.12) (tstamp 7bc87a0d-e6d4-4780-ab6c-05e332dd0dff))
  (fp_line (start -1.33 -1.33) (end 0 -1.33) (layer "F.SilkS") (width 0.12) (tstamp 89ca5dbf-ffcd-4580-a3a6-e1aae7fb38ca))
  (fp_line (start -1.33 1.27) (end -1.33 11.49) (layer "F.SilkS") (width 0.12) (tstamp c8daeb28-c525-4e55-a264-b6cb07a30f2d))
  (fp_line (start 1.33 1.27) (end 1.33 11.49) (layer "F.SilkS") (width 0.12) (tstamp d807ab4e-782e-412a-a12e-09a77b8c3305))
  (fp_line (start -1.8 -1.8) (end -1.8 11.95) (layer "F.CrtYd") (width 0.05) (tstamp 032983ee-e812-4071-a400-9e645fa62c9a))
  (fp_line (start -1.8 11.95) (end 1.8 11.95) (layer "F.CrtYd") (width 0.05) (tstamp 06a9ae71-e3c1-4cc3-b2e3-a63700a1b326))
  (fp_line (start 1.8 -1.8) (end -1.8 -1.8) (layer "F.CrtYd") (width 0.05) (tstamp 6146eab9-fca2-4bb4-bc11-0a211214f1c3))
  (fp_line (start 1.8 11.95) (end 1.8 -1.8) (layer "F.CrtYd") (width 0.05) (tstamp ccc300cc-1b9f-42a0-aa7a-badea07fb048))
  (fp_line (start -1.27 -0.635) (end -0.635 -1.27) (layer "F.Fab") (width 0.1) (tstamp 276430ee-7a5d-49cc-bfc8-a189d35f3f0c))
  (fp_line (start -0.635 -1.27) (end 1.27 -1.27) (layer "F.Fab") (width 0.1) (tstamp 44356c0d-9b78-48f4-a3d4-ef05db46f5b0))
  (fp_line (start -1.27 11.43) (end -1.27 -0.635) (layer "F.Fab") (width 0.1) (tstamp 4e24b314-e05b-43cf-a94e-9cd9a7f098a1))
  (fp_line (start 1.27 11.43) (end -1.27 11.43) (layer "F.Fab") (width 0.1) (tstamp 6b4371c5-3a90-4fb2-825e-41df9b3602a8))
  (fp_line (start 1.27 -1.27) (end 1.27 11.43) (layer "F.Fab") (width 0.1) (tstamp d6a08934-0f05-4531-86f0-e5931f2293f7))
  (pad "1" thru_hole rect (at 0 0) (size 1.7 1.7) (drill 1) (layers *.Cu *.Mask)
    (zone_connect 2) (tstamp 67a6b916-ca7a-41fc-ae72-435f634ad18a))
  (pad "2" thru_hole oval (at 0 2.54) (size 1.7 1.7) (drill 1) (layers *.Cu *.Mask)
    (zone_connect 2) (tstamp 3326710d-69e9-4099-a97d-86d21f9b321f))
  (pad "3" thru_hole oval (at 0 5.08) (size 1.7 1.7) (drill 1) (layers *.Cu *.Mask)
    (zone_connect 2) (tstamp 85d017ce-00d8-4b9d-9318-d2d75da9809b))
  (pad "4" thru_hole oval (at 0 7.62) (size 1.7 1.7) (drill 1) (layers *.Cu *.Mask)
    (zone_connect 2) (tstamp aee17aa9-4063-4345-8a9e-06f60fdbf52e))
  (pad "5" thru_hole oval (at 0 10.16) (size 1.7 1.7) (drill 1) (layers *.Cu *.Mask)
    (zone_connect 2) (tstamp 22fd0b99-335b-4814-8e02-dee040a2d596))
  (model "${KICAD6_3DMODEL_DIR}/Connector_PinHeader_2.54mm.3dshapes/PinHeader_1x05_P2.54mm_Vertical.wrl"
    (offset (xyz 0 0 0))
    (scale (xyz 1 1 1))
    (rotate (xyz 0 0 0))
  )
)
