(footprint "SMD_ANT9520" (version 20211014) (generator pcbnew)
  (layer "F.Cu")
  (tedit 6220B6BE)
  (descr "SMD antenna, 9.5x2.0mm, 2p")
  (attr through_hole)
  (fp_text reference "REF**" (at -0.325225 -2.136465) (layer "F.SilkS")
    (effects (font (size 1.000685 1.000685) (thickness 0.15)))
    (tstamp b06ce446-c27e-47df-a4e3-d10b64552c26)
  )
  (fp_text value "SMD_ANT9520" (at 4.992665 2.118235) (layer "F.Fab")
    (effects (font (size 1.001535 1.001535) (thickness 0.15)))
    (tstamp c9a0dd18-d945-4bfe-8921-ced29a4068d2)
  )
  (fp_line (start 3.5 1) (end -3.5 1) (layer "F.SilkS") (width 0.127) (tstamp 92e8f8c3-0985-4c0d-8e38-92cbbf365409))
  (fp_line (start -3.5 -1) (end 3.5 -1) (layer "F.SilkS") (width 0.127) (tstamp e68c5170-03c3-4a20-abd0-ad610c43d035))
  (fp_circle (center -3.5 1.75) (end -3 1.75) (layer "F.SilkS") (width 0.127) (fill none) (tstamp 08e2d62f-f99a-4268-8b33-617dfcc63e75))
  (pad "P$FEED" smd rect (at -4.75 0 90) (size 2.5 2) (layers "F.Cu" "F.Paste" "F.Mask") (tstamp e149e0b1-47fa-4b20-b36e-2d51ee1e85c3))
  (pad "P$GND" smd rect (at 4.75 0 90) (size 2.5 2) (layers "F.Cu" "F.Paste" "F.Mask") (tstamp 81c041f3-483e-477d-9475-d108280de2a9))
)
