(footprint "SOT-223" (version 20211014) (generator pcbnew)
  (layer "F.Cu")
  (tedit 6221CB43)
  (descr "module CMS SOT223 4 pins")
  (tags "CMS SOT")
  (zone_connect 2)
  (attr smd)
  (fp_text reference "REF**" (at 0 -4.5) (layer "F.SilkS")
    (effects (font (size 1 1) (thickness 0.15)))
    (tstamp fbe04df8-d9ea-457e-8524-7ca8dc449847)
  )
  (fp_text value "SOT-223" (at 0 4.5) (layer "F.Fab")
    (effects (font (size 1 1) (thickness 0.15)))
    (tstamp 06510899-63cd-4ba6-a2bd-944fc8588c2e)
  )
  (fp_text user "${REFERENCE}" (at 0 0 90) (layer "F.Fab")
    (effects (font (size 0.8 0.8) (thickness 0.12)))
    (tstamp 7339aa59-f53d-4cf4-9ac4-fcb3af848197)
  )
  (fp_line (start 1.91 -3.41) (end 1.91 -2.15) (layer "F.SilkS") (width 0.12) (tstamp 0a7b755c-9edc-4661-b36a-37544743e4e7))
  (fp_line (start -4.1 -3.41) (end 1.91 -3.41) (layer "F.SilkS") (width 0.12) (tstamp 158912ed-5283-445d-8566-cdff0f6def98))
  (fp_line (start -1.85 3.41) (end 1.91 3.41) (layer "F.SilkS") (width 0.12) (tstamp 43118421-0739-4346-a876-4d4c2d81c6d9))
  (fp_line (start 1.91 3.41) (end 1.91 2.15) (layer "F.SilkS") (width 0.12) (tstamp bdb6ecf3-536d-4e64-9a43-14febf0e5322))
  (fp_line (start 4.4 -3.6) (end -4.4 -3.6) (layer "F.CrtYd") (width 0.05) (tstamp 150d429e-0fc4-4330-ad63-4e82c6aa373c))
  (fp_line (start -4.4 -3.6) (end -4.4 3.6) (layer "F.CrtYd") (width 0.05) (tstamp 752e6645-4cfa-43fa-92ab-a82e723fd29a))
  (fp_line (start -4.4 3.6) (end 4.4 3.6) (layer "F.CrtYd") (width 0.05) (tstamp 891e32a9-2f82-4682-ab2f-45c996aabef4))
  (fp_line (start 4.4 3.6) (end 4.4 -3.6) (layer "F.CrtYd") (width 0.05) (tstamp a9b37091-59cd-4f01-b838-1ee88c6a1377))
  (fp_line (start -1.85 -2.3) (end -0.8 -3.35) (layer "F.Fab") (width 0.1) (tstamp 214d0301-8c75-4921-a6d6-1627e2251a27))
  (fp_line (start 1.85 -3.35) (end 1.85 3.35) (layer "F.Fab") (width 0.1) (tstamp 430eadd0-c906-4531-a5e0-c90f86d7b63d))
  (fp_line (start -1.85 3.35) (end 1.85 3.35) (layer "F.Fab") (width 0.1) (tstamp 84daf799-92ec-4828-aa6f-a0cf599da07c))
  (fp_line (start -1.85 -2.3) (end -1.85 3.35) (layer "F.Fab") (width 0.1) (tstamp 98114dd6-51d5-4e8c-8d1f-980c260d3f8d))
  (fp_line (start -0.8 -3.35) (end 1.85 -3.35) (layer "F.Fab") (width 0.1) (tstamp e92f0391-f746-4eae-b7bb-bc71331aa33d))
  (pad "1" smd rect (at -3.15 -2.3) (size 2 1.5) (layers "F.Cu" "F.Paste" "F.Mask")
    (zone_connect 2) (tstamp bc132226-2fe2-4c28-9c67-482abb7babf7))
  (pad "2" smd rect (at -3.15 0) (size 2 1.5) (layers "F.Cu" "F.Paste" "F.Mask")
    (zone_connect 2) (tstamp 460bea37-a047-43f6-a429-84bbd922c884))
  (pad "3" smd rect (at -3.15 2.3) (size 2 1.5) (layers "F.Cu" "F.Paste" "F.Mask")
    (zone_connect 2) (tstamp 0f9726cd-e7a7-48ba-a8a8-b999a75e9200))
  (pad "4" smd rect (at 3.15 0) (size 2 3.8) (layers "F.Cu" "F.Paste" "F.Mask")
    (zone_connect 2) (tstamp e7551802-52ac-4e60-b358-20fc531dc286))
  (model "${KICAD6_3DMODEL_DIR}/Package_TO_SOT_SMD.3dshapes/SOT-223.wrl"
    (offset (xyz 0 0 0))
    (scale (xyz 1 1 1))
    (rotate (xyz 0 0 0))
  )
)
