(footprint "STM32WB55CCU6" (version 20211014) (generator pcbnew)
  (layer "F.Cu")
  (tedit 6220B563)
  (attr through_hole)
  (fp_text reference "REF**" (at 0 0) (layer "F.SilkS")
    (effects (font (size 1 1) (thickness 0.15)))
    (tstamp f71d9b50-8d4b-4b4f-b5f9-02538aa39cb9)
  )
  (fp_text value "UFQFPN48-7x7mm" (at 0 0) (layer "F.SilkS")
    (effects (font (size 1 1) (thickness 0.15)))
    (tstamp 9fb27712-d1d0-4fbb-8f67-3a6f10d1024c)
  )
  (fp_text user "*" (at -4.289399 -3.381756) (layer "F.SilkS")
    (effects (font (size 1 1) (thickness 0.15)))
    (tstamp 62203c7f-2d88-46d1-bf82-126949d5407d)
  )
  (fp_text user "*" (at -4.289399 -3.381756) (layer "F.SilkS")
    (effects (font (size 1 1) (thickness 0.15)))
    (tstamp 690e79b8-5ecd-4dd3-b312-07b8fa4f78de)
  )
  (fp_text user "0.02in/0.5mm" (at -5.406999 -2.50063) (layer "Cmts.User")
    (effects (font (size 1 1) (thickness 0.15)))
    (tstamp 4712040d-57a8-44f6-ab8e-95bb8400ebc7)
  )
  (fp_text user "0.012in/0.305mm" (at -6.422999 3.374999) (layer "Cmts.User")
    (effects (font (size 1 1) (thickness 0.15)))
    (tstamp 986a9ddd-4455-435e-8d56-665102d58092)
  )
  (fp_text user "0.266in/6.75mm" (at 0 8.962999) (layer "Cmts.User")
    (effects (font (size 1 1) (thickness 0.15)))
    (tstamp af0f123e-c34f-4c2f-93ba-873cf1bbf070)
  )
  (fp_text user "Copyright 2021 Accelerated Designs. All rights reserved." (at 0 0) (layer "Cmts.User")
    (effects (font (size 0.127 0.127) (thickness 0.002)))
    (tstamp c39d0098-d7f3-46c1-9de2-72586acb7ace)
  )
  (fp_text user "0.22in/5.588mm" (at 0 5.842) (layer "Cmts.User")
    (effects (font (size 1 1) (thickness 0.15)))
    (tstamp d72f7690-5b05-4a6d-ae03-e5d77c1057f7)
  )
  (fp_text user "0.22in/5.588mm" (at 5.842 -0.635) (layer "Cmts.User")
    (effects (font (size 1 1) (thickness 0.15)))
    (tstamp dd35d172-0648-415f-bb65-0e84e0f8c560)
  )
  (fp_text user "0.022in/0.559mm" (at -3.374999 -6.422999) (layer "Cmts.User")
    (effects (font (size 1 1) (thickness 0.15)))
    (tstamp e8d050f3-37eb-408d-9e54-fd52bfb37550)
  )
  (fp_text user "0.266in/6.75mm" (at 8.962999 0.635) (layer "Cmts.User")
    (effects (font (size 1 1) (thickness 0.15)))
    (tstamp f0610c5b-b4dd-4dd6-93c5-2f2fae809af6)
  )
  (fp_text user "*" (at -2.8416 -3.000756) (layer "F.Fab")
    (effects (font (size 1 1) (thickness 0.15)))
    (tstamp 50593f0e-4b8a-4d12-ac62-bd667cbcd5fc)
  )
  (fp_text user "*" (at -2.8416 -3.000756) (layer "F.Fab")
    (effects (font (size 1 1) (thickness 0.15)))
    (tstamp d0873247-6d3c-4e3e-8698-f0d72cc82825)
  )
  (fp_poly (pts
      (xy -2.694 -2.694)
      (xy -2.694 -1.497)
      (xy -1.497 -1.497)
      (xy -1.497 -2.694)
    ) (layer "F.Paste") (width 0.1) (fill solid) (tstamp 010961e2-6f48-4d46-93cd-06d9cc68cf94))
  (fp_poly (pts
      (xy -1.297 1.497)
      (xy -1.297 2.694)
      (xy -0.1 2.694)
      (xy -0.1 1.497)
    ) (layer "F.Paste") (width 0.1) (fill solid) (tstamp 02e78ad8-09a4-439d-95ee-3e2015414491))
  (fp_poly (pts
      (xy 3.0956 0.097663)
      (xy 3.0956 0.402463)
      (xy 3.6544 0.402463)
      (xy 3.6544 0.097663)
    ) (layer "F.Paste") (width 0.1) (fill solid) (tstamp 06d2d69f-d8bf-4375-b5cb-db5a5577fb80))
  (fp_poly (pts
      (xy 0.1 -2.694)
      (xy 0.1 -1.497)
      (xy 1.297 -1.497)
      (xy 1.297 -2.694)
    ) (layer "F.Paste") (width 0.1) (fill solid) (tstamp 0ad481a3-16bc-4301-8765-d5f2b70842d1))
  (fp_poly (pts
      (xy 1.097915 3.0956)
      (xy 1.097915 3.6544)
      (xy 1.402715 3.6544)
      (xy 1.402715 3.0956)
    ) (layer "F.Paste") (width 0.1) (fill solid) (tstamp 1576052f-7341-4649-961a-6fa44acd4add))
  (fp_poly (pts
      (xy 1.497 -1.297)
      (xy 1.497 -0.1)
      (xy 2.694 -0.1)
      (xy 2.694 -1.297)
    ) (layer "F.Paste") (width 0.1) (fill solid) (tstamp 19bc7e7e-30d0-4e52-95e6-9bf7de2b568b))
  (fp_poly (pts
      (xy -0.402463 -3.6544)
      (xy -0.402463 -3.0956)
      (xy -0.097663 -3.0956)
      (xy -0.097663 -3.6544)
    ) (layer "F.Paste") (width 0.1) (fill solid) (tstamp 1a9c0a71-bdd3-4d66-8773-86c965feed0c))
  (fp_poly (pts
      (xy 3.0956 -2.903093)
      (xy 3.0956 -2.598293)
      (xy 3.6544 -2.598293)
      (xy 3.6544 -2.903093)
    ) (layer "F.Paste") (width 0.1) (fill solid) (tstamp 28c30af4-df51-43a0-bc62-d3691a335bc3))
  (fp_poly (pts
      (xy 3.0956 -0.402463)
      (xy 3.0956 -0.097663)
      (xy 3.6544 -0.097663)
      (xy 3.6544 -0.402463)
    ) (layer "F.Paste") (width 0.1) (fill solid) (tstamp 2a66e9ef-e8ab-4c4d-87c1-6f2381e86cbc))
  (fp_poly (pts
      (xy 3.0956 -2.402967)
      (xy 3.0956 -2.098167)
      (xy 3.6544 -2.098167)
      (xy 3.6544 -2.402967)
    ) (layer "F.Paste") (width 0.1) (fill solid) (tstamp 2a7d1635-108c-40c1-89aa-55aadf899ab6))
  (fp_poly (pts
      (xy -3.6544 -1.902841)
      (xy -3.6544 -1.598041)
      (xy -3.0956 -1.598041)
      (xy -3.0956 -1.902841)
    ) (layer "F.Paste") (width 0.1) (fill solid) (tstamp 2b813d2f-433c-4151-8dd8-f3f6cde04e62))
  (fp_poly (pts
      (xy 3.0956 1.097915)
      (xy 3.0956 1.402715)
      (xy 3.6544 1.402715)
      (xy 3.6544 1.097915)
    ) (layer "F.Paste") (width 0.1) (fill solid) (tstamp 2c24684c-5454-4207-bc3f-b66e8c50caf8))
  (fp_poly (pts
      (xy -2.903093 -3.6544)
      (xy -2.903093 -3.0956)
      (xy -2.598293 -3.0956)
      (xy -2.598293 -3.6544)
    ) (layer "F.Paste") (width 0.1) (fill solid) (tstamp 2d2bc278-0858-4a75-bea7-9fb301140b3e))
  (fp_poly (pts
      (xy -3.6544 -0.902589)
      (xy -3.6544 -0.597789)
      (xy -3.0956 -0.597789)
      (xy -3.0956 -0.902589)
    ) (layer "F.Paste") (width 0.1) (fill solid) (tstamp 309d5684-dc7c-4967-8535-170de839af9c))
  (fp_poly (pts
      (xy -3.6544 -2.903093)
      (xy -3.6544 -2.598293)
      (xy -3.0956 -2.598293)
      (xy -3.0956 -2.903093)
    ) (layer "F.Paste") (width 0.1) (fill solid) (tstamp 33855b55-d8ca-4025-93ff-bde42f0af16c))
  (fp_poly (pts
      (xy -1.402715 -3.6544)
      (xy -1.402715 -3.0956)
      (xy -1.097915 -3.0956)
      (xy -1.097915 -3.6544)
    ) (layer "F.Paste") (width 0.1) (fill solid) (tstamp 37ebaae7-e24b-415b-8082-28c9b33196bc))
  (fp_poly (pts
      (xy 0.097663 -3.6544)
      (xy 0.097663 -3.0956)
      (xy 0.402463 -3.0956)
      (xy 0.402463 -3.6544)
    ) (layer "F.Paste") (width 0.1) (fill solid) (tstamp 39ae8a6c-32c6-4a1b-baa6-b2fc7e555427))
  (fp_poly (pts
      (xy -0.902589 3.0956)
      (xy -0.902589 3.6544)
      (xy -0.597789 3.6544)
      (xy -0.597789 3.0956)
    ) (layer "F.Paste") (width 0.1) (fill solid) (tstamp 3cf7e9c3-7cb7-4599-9fbc-80b563294a59))
  (fp_poly (pts
      (xy 0.1 -1.297)
      (xy 0.1 -0.1)
      (xy 1.297 -0.1)
      (xy 1.297 -1.297)
    ) (layer "F.Paste") (width 0.1) (fill solid) (tstamp 3eebbec9-9c45-43e7-a950-309cfac0f44f))
  (fp_poly (pts
      (xy 1.598041 -3.6544)
      (xy 1.598041 -3.0956)
      (xy 1.902841 -3.0956)
      (xy 1.902841 -3.6544)
    ) (layer "F.Paste") (width 0.1) (fill solid) (tstamp 47b4be20-4ecc-4148-ac4d-6e6891663eca))
  (fp_poly (pts
      (xy -3.6544 0.097663)
      (xy -3.6544 0.402463)
      (xy -3.0956 0.402463)
      (xy -3.0956 0.097663)
    ) (layer "F.Paste") (width 0.1) (fill solid) (tstamp 4931e958-cff9-4cb9-a391-980ce6f8f7b0))
  (fp_poly (pts
      (xy -2.903093 3.0956)
      (xy -2.903093 3.6544)
      (xy -2.598293 3.6544)
      (xy -2.598293 3.0956)
    ) (layer "F.Paste") (width 0.1) (fill solid) (tstamp 4bd4cc27-8e6b-4626-95f2-16db0f78fd3b))
  (fp_poly (pts
      (xy 3.0956 -1.902841)
      (xy 3.0956 -1.598041)
      (xy 3.6544 -1.598041)
      (xy 3.6544 -1.902841)
    ) (layer "F.Paste") (width 0.1) (fill solid) (tstamp 4e0bc82a-324a-481c-bf5d-d785a0996fc4))
  (fp_poly (pts
      (xy -3.6544 -0.402463)
      (xy -3.6544 -0.097663)
      (xy -3.0956 -0.097663)
      (xy -3.0956 -0.402463)
    ) (layer "F.Paste") (width 0.1) (fill solid) (tstamp 5041026a-8a32-4d9b-bbf9-e5553c0671c9))
  (fp_poly (pts
      (xy 3.0956 1.598041)
      (xy 3.0956 1.902841)
      (xy 3.6544 1.902841)
      (xy 3.6544 1.598041)
    ) (layer "F.Paste") (width 0.1) (fill solid) (tstamp 53c9c80d-1aef-43b7-bac8-887165cc21e1))
  (fp_poly (pts
      (xy 3.0956 -1.402715)
      (xy 3.0956 -1.097915)
      (xy 3.6544 -1.097915)
      (xy 3.6544 -1.402715)
    ) (layer "F.Paste") (width 0.1) (fill solid) (tstamp 5e906fab-cbda-4297-8a09-9e12dae7620b))
  (fp_poly (pts
      (xy 3.0956 0.597789)
      (xy 3.0956 0.902589)
      (xy 3.6544 0.902589)
      (xy 3.6544 0.597789)
    ) (layer "F.Paste") (width 0.1) (fill solid) (tstamp 5f88dafe-e614-4523-9531-1af57eb8ba33))
  (fp_poly (pts
      (xy 0.1 1.497)
      (xy 0.1 2.694)
      (xy 1.297 2.694)
      (xy 1.297 1.497)
    ) (layer "F.Paste") (width 0.1) (fill solid) (tstamp 60006d9a-50b7-4dff-aca9-8a3f0778cdc4))
  (fp_poly (pts
      (xy 0.097663 3.0956)
      (xy 0.097663 3.6544)
      (xy 0.402463 3.6544)
      (xy 0.402463 3.0956)
    ) (layer "F.Paste") (width 0.1) (fill solid) (tstamp 6531028c-508b-4d05-9b76-d28f76a608c3))
  (fp_poly (pts
      (xy -0.902589 -3.6544)
      (xy -0.902589 -3.0956)
      (xy -0.597789 -3.0956)
      (xy -0.597789 -3.6544)
    ) (layer "F.Paste") (width 0.1) (fill solid) (tstamp 6a73b98b-6946-4f6c-b953-18dc3ebb7f75))
  (fp_poly (pts
      (xy 2.598293 -3.6544)
      (xy 2.598293 -3.0956)
      (xy 2.903093 -3.0956)
      (xy 2.903093 -3.6544)
    ) (layer "F.Paste") (width 0.1) (fill solid) (tstamp 7070f40b-76a7-4d37-9af5-8676c4c6ebee))
  (fp_poly (pts
      (xy -3.6544 0.597789)
      (xy -3.6544 0.902589)
      (xy -3.0956 0.902589)
      (xy -3.0956 0.597789)
    ) (layer "F.Paste") (width 0.1) (fill solid) (tstamp 70872a3b-1fee-4f28-a71a-2236ba86a073))
  (fp_poly (pts
      (xy -1.902841 3.0956)
      (xy -1.902841 3.6544)
      (xy -1.598041 3.6544)
      (xy -1.598041 3.0956)
    ) (layer "F.Paste") (width 0.1) (fill solid) (tstamp 729e00a4-2eb2-4f8a-9f4c-f5dd4aaa5261))
  (fp_poly (pts
      (xy 3.0956 -0.902589)
      (xy 3.0956 -0.597789)
      (xy 3.6544 -0.597789)
      (xy 3.6544 -0.902589)
    ) (layer "F.Paste") (width 0.1) (fill solid) (tstamp 72cfee45-fa9b-45ce-b9fa-cc4411a7e95d))
  (fp_poly (pts
      (xy -3.6544 1.097915)
      (xy -3.6544 1.402715)
      (xy -3.0956 1.402715)
      (xy -3.0956 1.097915)
    ) (layer "F.Paste") (width 0.1) (fill solid) (tstamp 74075434-8744-4dbf-abdf-b3b3c2f10cd1))
  (fp_poly (pts
      (xy 0.1 0.1)
      (xy 0.1 1.297)
      (xy 1.297 1.297)
      (xy 1.297 0.1)
    ) (layer "F.Paste") (width 0.1) (fill solid) (tstamp 78122292-07ad-49c4-b498-7401d1b7b596))
  (fp_poly (pts
      (xy 1.598041 3.0956)
      (xy 1.598041 3.6544)
      (xy 1.902841 3.6544)
      (xy 1.902841 3.0956)
    ) (layer "F.Paste") (width 0.1) (fill solid) (tstamp 84a50a70-20ac-4a40-a02c-eeabb69230c6))
  (fp_poly (pts
      (xy 1.497 0.1)
      (xy 1.497 1.297)
      (xy 2.694 1.297)
      (xy 2.694 0.1)
    ) (layer "F.Paste") (width 0.1) (fill solid) (tstamp 8747310d-7bb8-4685-acef-5aed659a8c76))
  (fp_poly (pts
      (xy 1.097915 -3.6544)
      (xy 1.097915 -3.0956)
      (xy 1.402715 -3.0956)
      (xy 1.402715 -3.6544)
    ) (layer "F.Paste") (width 0.1) (fill solid) (tstamp 8aa68a9c-a8f0-4b9c-bea9-d12b1cc11718))
  (fp_poly (pts
      (xy 3.0956 2.098167)
      (xy 3.0956 2.402967)
      (xy 3.6544 2.402967)
      (xy 3.6544 2.098167)
    ) (layer "F.Paste") (width 0.1) (fill solid) (tstamp 8f2e72d0-4fb4-4f40-b38f-a9a606ff8d3c))
  (fp_poly (pts
      (xy -1.297 -1.297)
      (xy -1.297 -0.1)
      (xy -0.1 -0.1)
      (xy -0.1 -1.297)
    ) (layer "F.Paste") (width 0.1) (fill solid) (tstamp 906f4436-3300-4ae3-88c4-9baff7dec29d))
  (fp_poly (pts
      (xy -2.694 -1.297)
      (xy -2.694 -0.1)
      (xy -1.497 -0.1)
      (xy -1.497 -1.297)
    ) (layer "F.Paste") (width 0.1) (fill solid) (tstamp 928a7446-1ce0-446b-9a90-287e3735a48e))
  (fp_poly (pts
      (xy -1.297 -2.694)
      (xy -1.297 -1.497)
      (xy -0.1 -1.497)
      (xy -0.1 -2.694)
    ) (layer "F.Paste") (width 0.1) (fill solid) (tstamp 92b50bae-b253-4486-be5e-8639ddbe0798))
  (fp_poly (pts
      (xy 2.098167 -3.6544)
      (xy 2.098167 -3.0956)
      (xy 2.402967 -3.0956)
      (xy 2.402967 -3.6544)
    ) (layer "F.Paste") (width 0.1) (fill solid) (tstamp 956e06cf-62a1-4b5a-aeb3-e6f655164f74))
  (fp_poly (pts
      (xy -3.6544 2.098167)
      (xy -3.6544 2.402967)
      (xy -3.0956 2.402967)
      (xy -3.0956 2.098167)
    ) (layer "F.Paste") (width 0.1) (fill solid) (tstamp ab0b1d41-e606-4825-965c-cf84660e47d3))
  (fp_poly (pts
      (xy 0.597789 3.0956)
      (xy 0.597789 3.6544)
      (xy 0.902589 3.6544)
      (xy 0.902589 3.0956)
    ) (layer "F.Paste") (width 0.1) (fill solid) (tstamp bd337133-0a43-4392-add5-aface2c1dd4c))
  (fp_poly (pts
      (xy -2.402967 3.0956)
      (xy -2.402967 3.6544)
      (xy -2.098167 3.6544)
      (xy -2.098167 3.0956)
    ) (layer "F.Paste") (width 0.1) (fill solid) (tstamp c5dde945-ca17-406b-b439-8089fa836ec9))
  (fp_poly (pts
      (xy -3.6544 2.598293)
      (xy -3.6544 2.903093)
      (xy -3.0956 2.903093)
      (xy -3.0956 2.598293)
    ) (layer "F.Paste") (width 0.1) (fill solid) (tstamp c89fd491-becb-467f-b56a-f03d598ff739))
  (fp_poly (pts
      (xy -2.694 1.497)
      (xy -2.694 2.694)
      (xy -1.497 2.694)
      (xy -1.497 1.497)
    ) (layer "F.Paste") (width 0.1) (fill solid) (tstamp c8f2f7cd-7488-4cda-98bb-dc95119afdb7))
  (fp_poly (pts
      (xy -0.402463 3.0956)
      (xy -0.402463 3.6544)
      (xy -0.097663 3.6544)
      (xy -0.097663 3.0956)
    ) (layer "F.Paste") (width 0.1) (fill solid) (tstamp cc3e4cf7-ce18-4127-aa70-e5a0bd5bb7c1))
  (fp_poly (pts
      (xy 1.497 -2.694)
      (xy 1.497 -1.497)
      (xy 2.694 -1.497)
      (xy 2.694 -2.694)
    ) (layer "F.Paste") (width 0.1) (fill solid) (tstamp cc86ea4e-86cf-4f4f-9f48-04b49c4b5fd2))
  (fp_poly (pts
      (xy -1.297 0.1)
      (xy -1.297 1.297)
      (xy -0.1 1.297)
      (xy -0.1 0.1)
    ) (layer "F.Paste") (width 0.1) (fill solid) (tstamp d4a6d9e3-4c66-466c-ae8c-cc40eb1c2551))
  (fp_poly (pts
      (xy 3.0956 2.598293)
      (xy 3.0956 2.903093)
      (xy 3.6544 2.903093)
      (xy 3.6544 2.598293)
    ) (layer "F.Paste") (width 0.1) (fill solid) (tstamp d89ccf02-073e-45c7-b3c4-2fcf6c3ad832))
  (fp_poly (pts
      (xy -3.6544 -1.402715)
      (xy -3.6544 -1.097915)
      (xy -3.0956 -1.097915)
      (xy -3.0956 -1.402715)
    ) (layer "F.Paste") (width 0.1) (fill solid) (tstamp db8d9adb-c0be-4d33-89a8-203607ad24a7))
  (fp_poly (pts
      (xy -1.402715 3.0956)
      (xy -1.402715 3.6544)
      (xy -1.097915 3.6544)
      (xy -1.097915 3.0956)
    ) (layer "F.Paste") (width 0.1) (fill solid) (tstamp dd9ce6f8-14fc-4c21-a508-3a92f083b1fd))
  (fp_poly (pts
      (xy 0.597789 -3.6544)
      (xy 0.597789 -3.0956)
      (xy 0.902589 -3.0956)
      (xy 0.902589 -3.6544)
    ) (layer "F.Paste") (width 0.1) (fill solid) (tstamp e0423aae-62f6-458e-bfc3-807f66691924))
  (fp_poly (pts
      (xy 2.098167 3.0956)
      (xy 2.098167 3.6544)
      (xy 2.402967 3.6544)
      (xy 2.402967 3.0956)
    ) (layer "F.Paste") (width 0.1) (fill solid) (tstamp e1e508d7-c1a6-431b-82b8-72ca1342b368))
  (fp_poly (pts
      (xy 1.497 1.497)
      (xy 1.497 2.694)
      (xy 2.694 2.694)
      (xy 2.694 1.497)
    ) (layer "F.Paste") (width 0.1) (fill solid) (tstamp e2d92c44-d5f1-4abb-8fbb-b5f1dcb76fd8))
  (fp_poly (pts
      (xy -2.402967 -3.6544)
      (xy -2.402967 -3.0956)
      (xy -2.098167 -3.0956)
      (xy -2.098167 -3.6544)
    ) (layer "F.Paste") (width 0.1) (fill solid) (tstamp e721cb39-0cb3-4c17-a648-5ba6edd83876))
  (fp_poly (pts
      (xy -3.6544 1.598041)
      (xy -3.6544 1.902841)
      (xy -3.0956 1.902841)
      (xy -3.0956 1.598041)
    ) (layer "F.Paste") (width 0.1) (fill solid) (tstamp ea5e842e-aff6-458b-a847-2e549db82a93))
  (fp_poly (pts
      (xy -3.6544 -2.402967)
      (xy -3.6544 -2.098167)
      (xy -3.0956 -2.098167)
      (xy -3.0956 -2.402967)
    ) (layer "F.Paste") (width 0.1) (fill solid) (tstamp eda76c5c-e61c-4413-93ff-3f8b8f08c362))
  (fp_poly (pts
      (xy 2.598293 3.0956)
      (xy 2.598293 3.6544)
      (xy 2.903093 3.6544)
      (xy 2.903093 3.0956)
    ) (layer "F.Paste") (width 0.1) (fill solid) (tstamp ef3115c4-23ab-4f71-a4e9-698c2541e1bf))
  (fp_poly (pts
      (xy -1.902841 -3.6544)
      (xy -1.902841 -3.0956)
      (xy -1.598041 -3.0956)
      (xy -1.598041 -3.6544)
    ) (layer "F.Paste") (width 0.1) (fill solid) (tstamp f31795e1-bf4b-40fb-b2d8-26190b21c4ff))
  (fp_poly (pts
      (xy -2.694 0.1)
      (xy -2.694 1.297)
      (xy -1.497 1.297)
      (xy -1.497 0.1)
    ) (layer "F.Paste") (width 0.1) (fill solid) (tstamp f754d75e-4b89-493b-9e2f-d3c3810974e7))
  (fp_line (start -3.937 -3.937) (end -3.937 -3.078743) (layer "F.SilkS") (width 0.12) (tstamp 04f71f88-c408-42ae-942c-16f1259a30c6))
  (fp_line (start 3.937 -3.937) (end 3.078743 -3.937) (layer "F.SilkS") (width 0.12) (tstamp 8e904686-ce34-474a-ab32-7bf99fa061c1))
  (fp_line (start 3.937 -3.078743) (end 3.937 -3.937) (layer "F.SilkS") (width 0.12) (tstamp 986ae3bb-6137-4fef-b331-4941a7206d18))
  (fp_line (start -3.937 3.937) (end -3.078743 3.937) (layer "F.SilkS") (width 0.12) (tstamp afa39b9f-bfd4-4298-8d4d-f20a8db9d0fd))
  (fp_line (start -3.937 3.078743) (end -3.937 3.937) (layer "F.SilkS") (width 0.12) (tstamp ce5a64b4-ffa7-454d-a7f8-86160de58d54))
  (fp_line (start 3.078743 3.937) (end 3.937 3.937) (layer "F.SilkS") (width 0.12) (tstamp d04d43a9-1b28-4db2-b9a4-cde85477ba90))
  (fp_line (start 3.937 3.937) (end 3.937 3.078743) (layer "F.SilkS") (width 0.12) (tstamp df04c78d-6b15-483f-bce7-12d3ba3f502e))
  (fp_line (start -3.078743 -3.937) (end -3.937 -3.937) (layer "F.SilkS") (width 0.12) (tstamp f13cbe29-31f0-4268-8924-bb402ccc38da))
  (fp_poly (pts
      (xy 4.1624 0.059563)
      (xy 4.1624 0.440563)
      (xy 3.9084 0.440563)
      (xy 3.9084 0.059563)
    ) (layer "F.SilkS") (width 0.1) (fill solid) (tstamp 6f9768aa-a42d-4c54-8fd6-1e83bd60d092))
  (fp_poly (pts
      (xy 1.059815 -3.9084)
      (xy 1.059815 -4.1624)
      (xy 1.440815 -4.1624)
      (xy 1.440815 -3.9084)
    ) (layer "F.SilkS") (width 0.1) (fill solid) (tstamp 73611aa0-14a7-4661-9995-407a177db15a))
  (fp_poly (pts
      (xy 0.559689 3.9084)
      (xy 0.559689 4.1624)
      (xy 0.940689 4.1624)
      (xy 0.940689 3.9084)
    ) (layer "F.SilkS") (width 0.1) (fill solid) (tstamp 8a94ce7c-f83c-44e6-9999-88494806e5c1))
  (fp_poly (pts
      (xy -4.1624 1.559941)
      (xy -4.1624 1.940941)
      (xy -3.9084 1.940941)
      (xy -3.9084 1.559941)
    ) (layer "F.SilkS") (width 0.1) (fill solid) (tstamp c6613faa-9171-4ee9-a501-597a78ae2cc8))
  (fp_poly (pts
      (xy 3.0956 2.098167)
      (xy 3.0956 2.402967)
      (xy 3.6544 2.402967)
      (xy 3.6544 2.098167)
    ) (layer "F.Mask") (width 0.1) (fill solid) (tstamp 01573dcd-40ec-4fc4-830b-2ffcb4206300))
  (fp_poly (pts
      (xy -3.6544 -1.902841)
      (xy -3.6544 -1.598041)
      (xy -3.0956 -1.598041)
      (xy -3.0956 -1.902841)
    ) (layer "F.Mask") (width 0.1) (fill solid) (tstamp 0619fa58-ee03-49b4-a8b2-bd9ca95592bd))
  (fp_poly (pts
      (xy -2.402967 -3.6544)
      (xy -2.402967 -3.0956)
      (xy -2.098167 -3.0956)
      (xy -2.098167 -3.6544)
    ) (layer "F.Mask") (width 0.1) (fill solid) (tstamp 062bfe21-50bc-4c32-bf88-2a9a625d664f))
  (fp_poly (pts
      (xy -1.902841 -3.6544)
      (xy -1.902841 -3.0956)
      (xy -1.598041 -3.0956)
      (xy -1.598041 -3.6544)
    ) (layer "F.Mask") (width 0.1) (fill solid) (tstamp 13aed896-c368-45df-8c8e-b5276d2260c5))
  (fp_poly (pts
      (xy -3.6544 -0.902589)
      (xy -3.6544 -0.597789)
      (xy -3.0956 -0.597789)
      (xy -3.0956 -0.902589)
    ) (layer "F.Mask") (width 0.1) (fill solid) (tstamp 13b732fe-9397-43cf-8135-a088fcc25e12))
  (fp_poly (pts
      (xy -1.402715 -3.6544)
      (xy -1.402715 -3.0956)
      (xy -1.097915 -3.0956)
      (xy -1.097915 -3.6544)
    ) (layer "F.Mask") (width 0.1) (fill solid) (tstamp 1910973b-3e1a-4e5b-9ac7-08060a29985f))
  (fp_poly (pts
      (xy 3.0956 1.598041)
      (xy 3.0956 1.902841)
      (xy 3.6544 1.902841)
      (xy 3.6544 1.598041)
    ) (layer "F.Mask") (width 0.1) (fill solid) (tstamp 1cc92eb5-0944-4516-b2fd-595f7795a98a))
  (fp_poly (pts
      (xy -3.6544 -2.903093)
      (xy -3.6544 -2.598293)
      (xy -3.0956 -2.598293)
      (xy -3.0956 -2.903093)
    ) (layer "F.Mask") (width 0.1) (fill solid) (tstamp 1d1fe625-377a-4403-bea7-6d33040af7e5))
  (fp_poly (pts
      (xy 1.097915 -3.6544)
      (xy 1.097915 -3.0956)
      (xy 1.402715 -3.0956)
      (xy 1.402715 -3.6544)
    ) (layer "F.Mask") (width 0.1) (fill solid) (tstamp 1dd3f962-5748-406e-9e93-5433cdf60104))
  (fp_poly (pts
      (xy -3.6544 1.097915)
      (xy -3.6544 1.402715)
      (xy -3.0956 1.402715)
      (xy -3.0956 1.097915)
    ) (layer "F.Mask") (width 0.1) (fill solid) (tstamp 2052f0e6-2be5-4448-8bdb-ca816b0c14f9))
  (fp_poly (pts
      (xy 0.097663 3.0956)
      (xy 0.097663 3.6544)
      (xy 0.402463 3.6544)
      (xy 0.402463 3.0956)
    ) (layer "F.Mask") (width 0.1) (fill solid) (tstamp 2ec73d24-6f86-4f96-a70e-b6a7ae1aa56f))
  (fp_poly (pts
      (xy 0.597789 3.0956)
      (xy 0.597789 3.6544)
      (xy 0.902589 3.6544)
      (xy 0.902589 3.0956)
    ) (layer "F.Mask") (width 0.1) (fill solid) (tstamp 30caf215-e84c-47fb-98de-61c695014026))
  (fp_poly (pts
      (xy -2.903093 -3.6544)
      (xy -2.903093 -3.0956)
      (xy -2.598293 -3.0956)
      (xy -2.598293 -3.6544)
    ) (layer "F.Mask") (width 0.1) (fill solid) (tstamp 399191b8-8b7b-4250-8232-13bcd8d54727))
  (fp_poly (pts
      (xy 3.0956 -1.402715)
      (xy 3.0956 -1.097915)
      (xy 3.6544 -1.097915)
      (xy 3.6544 -1.402715)
    ) (layer "F.Mask") (width 0.1) (fill solid) (tstamp 42bc0da6-4c60-48c4-9d16-4154c191a763))
  (fp_poly (pts
      (xy -1.402715 3.0956)
      (xy -1.402715 3.6544)
      (xy -1.097915 3.6544)
      (xy -1.097915 3.0956)
    ) (layer "F.Mask") (width 0.1) (fill solid) (tstamp 4606986e-2944-4218-b5ea-646f2ccbc821))
  (fp_poly (pts
      (xy -3.6544 1.598041)
      (xy -3.6544 1.902841)
      (xy -3.0956 1.902841)
      (xy -3.0956 1.598041)
    ) (layer "F.Mask") (width 0.1) (fill solid) (tstamp 512529e9-be80-4d45-a96f-1145329198b3))
  (fp_poly (pts
      (xy 3.0956 -0.902589)
      (xy 3.0956 -0.597789)
      (xy 3.6544 -0.597789)
      (xy 3.6544 -0.902589)
    ) (layer "F.Mask") (width 0.1) (fill solid) (tstamp 55d3bb9a-fd07-47f6-ac8c-0b322236c705))
  (fp_poly (pts
      (xy 3.0956 2.598293)
      (xy 3.0956 2.903093)
      (xy 3.6544 2.903093)
      (xy 3.6544 2.598293)
    ) (layer "F.Mask") (width 0.1) (fill solid) (tstamp 585973da-78da-4a59-b329-47a7ee730e8a))
  (fp_poly (pts
      (xy -0.902589 -3.6544)
      (xy -0.902589 -3.0956)
      (xy -0.597789 -3.0956)
      (xy -0.597789 -3.6544)
    ) (layer "F.Mask") (width 0.1) (fill solid) (tstamp 5e4b2c9f-9bc2-49ff-aea8-a1c7d303de00))
  (fp_poly (pts
      (xy -3.6544 0.097663)
      (xy -3.6544 0.402463)
      (xy -3.0956 0.402463)
      (xy -3.0956 0.097663)
    ) (layer "F.Mask") (width 0.1) (fill solid) (tstamp 6674fcc9-0153-4fac-a3bc-75055a4b6fad))
  (fp_poly (pts
      (xy -0.402463 3.0956)
      (xy -0.402463 3.6544)
      (xy -0.097663 3.6544)
      (xy -0.097663 3.0956)
    ) (layer "F.Mask") (width 0.1) (fill solid) (tstamp 710c87df-58cf-4d1c-ad64-932a210b6aae))
  (fp_poly (pts
      (xy -2.402967 3.0956)
      (xy -2.402967 3.6544)
      (xy -2.098167 3.6544)
      (xy -2.098167 3.0956)
    ) (layer "F.Mask") (width 0.1) (fill solid) (tstamp 75825f50-70b2-445a-90be-0311b87c7e5c))
  (fp_poly (pts
      (xy -3.6544 2.598293)
      (xy -3.6544 2.903093)
      (xy -3.0956 2.903093)
      (xy -3.0956 2.598293)
    ) (layer "F.Mask") (width 0.1) (fill solid) (tstamp 75e40396-82ab-4fbe-8918-2c9f61b8e319))
  (fp_poly (pts
      (xy 3.0956 -1.902841)
      (xy 3.0956 -1.598041)
      (xy 3.6544 -1.598041)
      (xy 3.6544 -1.902841)
    ) (layer "F.Mask") (width 0.1) (fill solid) (tstamp 7db6856c-56e0-424a-afcb-36cf00770d5a))
  (fp_poly (pts
      (xy -3.6544 -0.402463)
      (xy -3.6544 -0.097663)
      (xy -3.0956 -0.097663)
      (xy -3.0956 -0.402463)
    ) (layer "F.Mask") (width 0.1) (fill solid) (tstamp 7e011950-a3cc-4e75-9a13-7c672e770701))
  (fp_poly (pts
      (xy -3.6544 -2.402967)
      (xy -3.6544 -2.098167)
      (xy -3.0956 -2.098167)
      (xy -3.0956 -2.402967)
    ) (layer "F.Mask") (width 0.1) (fill solid) (tstamp 826c7860-4cac-4db6-96a5-2455a9e42e9a))
  (fp_poly (pts
      (xy -2.903093 3.0956)
      (xy -2.903093 3.6544)
      (xy -2.598293 3.6544)
      (xy -2.598293 3.0956)
    ) (layer "F.Mask") (width 0.1) (fill solid) (tstamp 8aa5025c-ec47-4dcf-ad74-9679e3cdef83))
  (fp_poly (pts
      (xy 1.598041 3.0956)
      (xy 1.598041 3.6544)
      (xy 1.902841 3.6544)
      (xy 1.902841 3.0956)
    ) (layer "F.Mask") (width 0.1) (fill solid) (tstamp 911fd620-7ff6-49eb-a186-1c1f790b84ba))
  (fp_poly (pts
      (xy 3.0956 -0.402463)
      (xy 3.0956 -0.097663)
      (xy 3.6544 -0.097663)
      (xy 3.6544 -0.402463)
    ) (layer "F.Mask") (width 0.1) (fill solid) (tstamp 985f8f5a-9247-42fe-bedd-44af6e0600ba))
  (fp_poly (pts
      (xy 0.097663 -3.6544)
      (xy 0.097663 -3.0956)
      (xy 0.402463 -3.0956)
      (xy 0.402463 -3.6544)
    ) (layer "F.Mask") (width 0.1) (fill solid) (tstamp 997daa6e-1d41-447a-bc02-7a56c0ee37fb))
  (fp_poly (pts
      (xy 3.0956 0.097663)
      (xy 3.0956 0.402463)
      (xy 3.6544 0.402463)
      (xy 3.6544 0.097663)
    ) (layer "F.Mask") (width 0.1) (fill solid) (tstamp a444eec5-e928-4788-a032-72ddc2d75cd0))
  (fp_poly (pts
      (xy 2.598293 3.0956)
      (xy 2.598293 3.6544)
      (xy 2.903093 3.6544)
      (xy 2.903093 3.0956)
    ) (layer "F.Mask") (width 0.1) (fill solid) (tstamp b8790514-1424-44a6-b36e-2e7680815de1))
  (fp_poly (pts
      (xy 3.0956 -2.402967)
      (xy 3.0956 -2.098167)
      (xy 3.6544 -2.098167)
      (xy 3.6544 -2.402967)
    ) (layer "F.Mask") (width 0.1) (fill solid) (tstamp b91188b5-8fc5-4c73-b77f-e64c2593c5ac))
  (fp_poly (pts
      (xy 3.0956 0.597789)
      (xy 3.0956 0.902589)
      (xy 3.6544 0.902589)
      (xy 3.6544 0.597789)
    ) (layer "F.Mask") (width 0.1) (fill solid) (tstamp bb16a516-4131-4a51-bbea-b711bad6e2cf))
  (fp_poly (pts
      (xy 3.0956 1.097915)
      (xy 3.0956 1.402715)
      (xy 3.6544 1.402715)
      (xy 3.6544 1.097915)
    ) (layer "F.Mask") (width 0.1) (fill solid) (tstamp bc0f4bb4-c35b-4eae-b0a7-08ce79d65cdf))
  (fp_poly (pts
      (xy 2.098167 -3.6544)
      (xy 2.098167 -3.0956)
      (xy 2.402967 -3.0956)
      (xy 2.402967 -3.6544)
    ) (layer "F.Mask") (width 0.1) (fill solid) (tstamp bea900fb-1901-40d8-8d69-306ff0f3a285))
  (fp_poly (pts
      (xy 3.0956 -2.903093)
      (xy 3.0956 -2.598293)
      (xy 3.6544 -2.598293)
      (xy 3.6544 -2.903093)
    ) (layer "F.Mask") (width 0.1) (fill solid) (tstamp befd6b19-7e70-4952-9928-d359e6b0cbf0))
  (fp_poly (pts
      (xy 1.598041 -3.6544)
      (xy 1.598041 -3.0956)
      (xy 1.902841 -3.0956)
      (xy 1.902841 -3.6544)
    ) (layer "F.Mask") (width 0.1) (fill solid) (tstamp c8699630-e80d-466a-9378-095fa87eed6c))
  (fp_poly (pts
      (xy -1.902841 3.0956)
      (xy -1.902841 3.6544)
      (xy -1.598041 3.6544)
      (xy -1.598041 3.0956)
    ) (layer "F.Mask") (width 0.1) (fill solid) (tstamp d096363e-612f-40ef-bd85-189b3adc14c1))
  (fp_poly (pts
      (xy 0.597789 -3.6544)
      (xy 0.597789 -3.0956)
      (xy 0.902589 -3.0956)
      (xy 0.902589 -3.6544)
    ) (layer "F.Mask") (width 0.1) (fill solid) (tstamp d5c61ed5-cbfb-4bda-bc1a-545a337aca54))
  (fp_poly (pts
      (xy -0.402463 -3.6544)
      (xy -0.402463 -3.0956)
      (xy -0.097663 -3.0956)
      (xy -0.097663 -3.6544)
    ) (layer "F.Mask") (width 0.1) (fill solid) (tstamp dc533826-915b-4197-a3a4-583a0f0f3bb2))
  (fp_poly (pts
      (xy 1.097915 3.0956)
      (xy 1.097915 3.6544)
      (xy 1.402715 3.6544)
      (xy 1.402715 3.0956)
    ) (layer "F.Mask") (width 0.1) (fill solid) (tstamp e0370586-5fae-4618-b437-023e37e782f8))
  (fp_poly (pts
      (xy -0.902589 3.0956)
      (xy -0.902589 3.6544)
      (xy -0.597789 3.6544)
      (xy -0.597789 3.0956)
    ) (layer "F.Mask") (width 0.1) (fill solid) (tstamp e2715118-2acd-4636-8cda-350f8c9a378e))
  (fp_poly (pts
      (xy -3.6544 2.098167)
      (xy -3.6544 2.402967)
      (xy -3.0956 2.402967)
      (xy -3.0956 2.098167)
    ) (layer "F.Mask") (width 0.1) (fill solid) (tstamp f2d084d5-3227-4cf1-b8a1-119fd8bd10e9))
  (fp_poly (pts
      (xy 2.598293 -3.6544)
      (xy 2.598293 -3.0956)
      (xy 2.903093 -3.0956)
      (xy 2.903093 -3.6544)
    ) (layer "F.Mask") (width 0.1) (fill solid) (tstamp f45039dd-4bdc-4dd9-a9c9-5ee154cf7ec4))
  (fp_poly (pts
      (xy -3.6544 -1.402715)
      (xy -3.6544 -1.097915)
      (xy -3.0956 -1.097915)
      (xy -3.0956 -1.402715)
    ) (layer "F.Mask") (width 0.1) (fill solid) (tstamp f8649181-d40c-4568-b90f-60413e40c4cc))
  (fp_poly (pts
      (xy -3.6544 0.597789)
      (xy -3.6544 0.902589)
      (xy -3.0956 0.902589)
      (xy -3.0956 0.597789)
    ) (layer "F.Mask") (width 0.1) (fill solid) (tstamp fdf1af1e-7b70-446f-a9f4-cf49c40310fd))
  (fp_poly (pts
      (xy 2.098167 3.0956)
      (xy 2.098167 3.6544)
      (xy 2.402967 3.6544)
      (xy 2.402967 3.0956)
    ) (layer "F.Mask") (width 0.1) (fill solid) (tstamp feb3a40b-c867-4f50-a75a-52cae9820081))
  (fp_line (start 2.750693 -3.374999) (end 8.454999 -3.374999) (layer "Cmts.User") (width 0.1) (tstamp 047aa3bb-6884-4df5-83ed-7ea551b329b1))
  (fp_line (start -6.803999 3.556) (end -6.930999 3.302) (layer "Cmts.User") (width 0.1) (tstamp 0b82b3a4-6708-4675-a509-00beb9c1db50))
  (fp_line (start -3.556 6.803999) (end -3.302 6.930999) (layer "Cmts.User") (width 0.1) (tstamp 0c2378e7-98b6-4341-a606-7013471a0b87))
  (fp_line (start 3.302 6.676999) (end 3.302 6.930999) (layer "Cmts.User") (width 0.1) (tstamp 0f50dd5f-d876-4d43-ac7b-6e954bac87c9))
  (fp_line (start 3.556 3.556) (end -7.184999 3.556) (layer "Cmts.User") (width 0.1) (tstamp 0fcc6589-13d0-41b2-aeda-e70f5127a2c7))
  (fp_line (start 3.556 6.803999) (end 3.302 6.676999) (layer "Cmts.User") (width 0.1) (tstamp 0fd0a8e5-ed02-4447-873f-d5ab65d011c1))
  (fp_line (start 8.073999 -3.374999) (end 8.200999 -3.120999) (layer "Cmts.User") (width 0.1) (tstamp 1009eeb8-4be8-49ff-871d-1e30079ffe54))
  (fp_line (start -3.556 -3.556) (end -3.556 7.184999) (layer "Cmts.User") (width 0.1) (tstamp 15a4c1d4-79e8-4410-9a73-87109bcb7f5c))
  (fp_line (start 3.556 -6.168999) (end 4.826 -6.168999) (layer "Cmts.User") (width 0.1) (tstamp 18824509-dd9a-4fc2-8c0e-e217ed58e26e))
  (fp_line (start -3.120999 -8.200999) (end -3.120999 -7.946999) (layer "Cmts.User") (width 0.1) (tstamp 18b5c696-1093-40c2-b2ef-33cde1543082))
  (fp_line (start 3.374999 -2.750693) (end 3.374999 -8.454999) (layer "Cmts.User") (width 0.1) (tstamp 26ba2f46-130d-4a69-ac1f-d3ba99b6ab50))
  (fp_line (start -3.374999 -2.750693) (end -3.374999 -8.454999) (layer "Cmts.User") (width 0.1) (tstamp 2fd3affb-2e75-45fa-9d9f-59210bdb084d))
  (fp_line (start 3.556 6.803999) (end 3.302 6.930999) (layer "Cmts.User") (width 0.1) (tstamp 30664d61-399f-4c49-afa7-fa3765378abd))
  (fp_line (start 6.168999 -2.250567) (end 6.295999 -1.996567) (layer "Cmts.User") (width 0.1) (tstamp 4674aa0b-b56c-454e-a4bf-8ed79c385e5e))
  (fp_line (start 3.374999 -8.073999) (end 3.120999 -8.200999) (layer "Cmts.User") (width 0.1) (tstamp 5115d19b-8d11-49ce-b309-80dd053f468d))
  (fp_line (start 6.041999 -1.996567) (end 6.295999 -1.996567) (layer "Cmts.User") (width 0.1) (tstamp 59d13ece-c564-4c59-bfd9-780db895bcc2))
  (fp_line (start 6.168999 -2.750693) (end 6.295999 -3.004693) (layer "Cmts.User") (width 0.1) (tstamp 60a2b3b7-beef-4c20-99f6-d269a14e54d2))
  (fp_line (start 3.556 -3.556) (end 3.556 7.184999) (layer "Cmts.User") (width 0.1) (tstamp 658c0e97-977e-4e4a-ae4a-388d7a8a0fa2))
  (fp_line (start 3.048 -6.168999) (end 1.778 -6.168999) (layer "Cmts.User") (width 0.1) (tstamp 67891183-5599-4c09-ba92-73980c152afe))
  (fp_line (start 3.81 -6.295999) (end 3.81 -6.041999) (layer "Cmts.User") (width 0.1) (tstamp 69b756a3-12a8-42b0-8021-0e5a4af9ef03))
  (fp_line (start 3.374999 -2.250567) (end 6.549999 -2.250567) (layer "Cmts.User") (width 0.1) (tstamp 6f4ed46c-1446-402f-b1dc-8b07ca556e12))
  (fp_line (start 7.946999 -3.120999) (end 8.200999 -3.120999) (layer "Cmts.User") (width 0.1) (tstamp 781602e4-fe25-4da3-a788-0c3d20aafcb7))
  (fp_line (start 3.048 -6.168999) (end 2.794 -6.295999) (layer "Cmts.User") (width 0.1) (tstamp 79e5aaf8-9af6-4c09-8216-bb50eb0a102e))
  (fp_line (start 6.168999 -2.250567) (end 6.041999 -1.996567) (layer "Cmts.User") (width 0.1) (tstamp 7ab03288-9a32-4011-99c1-1d80fbbcd678))
  (fp_line (start -6.803999 3.556) (end -6.676999 3.302) (layer "Cmts.User") (width 0.1) (tstamp 7c70a95d-e021-4338-a3de-d7656880600e))
  (fp_line (start 3.556 -2.750693) (end 3.556 -6.549999) (layer "Cmts.User") (width 0.1) (tstamp 86d2adea-a062-4d19-91e5-ed0affac8199))
  (fp_line (start -6.930999 -3.302) (end -6.676999 -3.302) (layer "Cmts.User") (width 0.1) (tstamp 8774f0a1-1469-43a9-96cb-2dc2471a56a4))
  (fp_line (start -3.374999 -8.073999) (end -3.120999 -8.200999) (layer "Cmts.User") (width 0.1) (tstamp 8affbbfc-7a19-4367-8cbf-abdf4e25dcaa))
  (fp_line (start 8.073999 3.374999) (end 8.200999 3.120999) (layer "Cmts.User") (width 0.1) (tstamp 90a8919c-94ff-4a26-902b-2c6d28e60394))
  (fp_line (start 3.048 -2.750693) (end 3.048 -6.549999) (layer "Cmts.User") (width 0.1) (tstamp 93dc74e4-1fd0-4653-81b5-57c0eaf28c1e))
  (fp_line (start 3.374999 -2.750693) (end 6.549999 -2.750693) (layer "Cmts.User") (width 0.1) (tstamp 96040761-b0e5-47a9-8ba7-7d9622476861))
  (fp_line (start 8.073999 -3.374999) (end 7.946999 -3.120999) (layer "Cmts.User") (width 0.1) (tstamp a39bff73-ba40-4b6f-b0a8-69b4aafc2399))
  (fp_line (start 3.556 -6.168999) (end 3.81 -6.295999) (layer "Cmts.User") (width 0.1) (tstamp a3d0b657-8288-4493-8b1a-0f7c5cf670c8))
  (fp_line (start 6.168999 -2.250567) (end 6.168999 -0.980567) (layer "Cmts.User") (width 0.1) (tstamp a93798d4-7d82-438e-a8e8-7a6098169d51))
  (fp_line (start -3.374999 -8.073999) (end 3.374999 -8.073999) (layer "Cmts.User") (width 0.1) (tstamp aa706075-04f2-4da4-98e5-d7d88cd7820f))
  (fp_line (start -6.803999 -3.556) (end -6.676999 -3.302) (layer "Cmts.User") (width 0.1) (tstamp adfbfe80-f647-4af0-a870-88685828effc))
  (fp_line (start 3.048 -6.168999) (end 2.794 -6.041999) (layer "Cmts.User") (width 0.1) (tstamp afc5f493-e4c7-4a7e-91ca-7829b912a44e))
  (fp_line (start 6.168999 -2.750693) (end 6.168999 -4.020693) (layer "Cmts.User") (width 0.1) (tstamp b1026f44-caae-47b5-9069-9159216183db))
  (fp_line (start 6.168999 -2.750693) (end 6.041999 -3.004693) (layer "Cmts.User") (width 0.1) (tstamp b1b74aee-c522-4f09-8a32-d988840903cc))
  (fp_line (start 3.120999 -8.200999) (end 3.120999 -7.946999) (layer "Cmts.User") (width 0.1) (tstamp b3cb87f7-256f-493b-9c8f-1e85ebba9ab9))
  (fp_line (start -3.374999 -8.073999) (end -3.120999 -7.946999) (layer "Cmts.User") (width 0.1) (tstamp b5c37567-3300-47fd-b18f-244f23783d3c))
  (fp_line (start 3.374999 -8.073999) (end 3.120999 -7.946999) (layer "Cmts.User") (width 0.1) (tstamp bc947ef2-1a25-4fc3-90a8-e452619c96c9))
  (fp_line (start 8.073999 3.374999) (end 7.946999 3.120999) (layer "Cmts.User") (width 0.1) (tstamp c35a9928-3453-4c10-b581-c909a87ff023))
  (fp_line (start 7.946999 3.120999) (end 8.200999 3.120999) (layer "Cmts.User") (width 0.1) (tstamp c91644e3-e2e9-476e-bec0-d28e2c21a011))
  (fp_line (start -3.556 6.803999) (end -3.302 6.676999) (layer "Cmts.User") (width 0.1) (tstamp cfa43e4b-13fc-4550-b3de-8fdc67efc063))
  (fp_line (start 2.794 -6.295999) (end 2.794 -6.041999) (layer "Cmts.User") (width 0.1) (tstamp d2a51ab8-87f6-45a5-af73-2506f338456e))
  (fp_line (start 3.556 -6.168999) (end 3.81 -6.041999) (layer "Cmts.User") (width 0.1) (tstamp d3b1c7fb-5b6a-4d1a-ae00-258881737cf3))
  (fp_line (start 6.041999 -3.004693) (end 6.295999 -3.004693) (layer "Cmts.User") (width 0.1) (tstamp d9a0557d-2066-4762-9c78-538f77b8afeb))
  (fp_line (start -3.302 6.676999) (end -3.302 6.930999) (layer "Cmts.User") (width 0.1) (tstamp dbebf6dd-51f1-461c-952c-1aec1c63b457))
  (fp_line (start 3.556 -3.556) (end -7.184999 -3.556) (layer "Cmts.User") (width 0.1) (tstamp e6790c5d-2c5e-4728-8d92-8b5fc4b99492))
  (fp_line (start -6.930999 3.302) (end -6.676999 3.302) (layer "Cmts.User") (width 0.1) (tstamp eef28992-d1be-4e0f-acc4-da16fd8e9176))
  (fp_line (start -6.803999 -3.556) (end -6.930999 -3.302) (layer "Cmts.User") (width 0.1) (tstamp f21e0d2f-30e3-44a7-b089-f9815487c7f8))
  (fp_line (start -6.803999 -3.556) (end -6.803999 3.556) (layer "Cmts.User") (width 0.1) (tstamp f3f5899a-89f7-41ea-9333-591cbbae0e78))
  (fp_line (start -3.556 6.803999) (end 3.556 6.803999) (layer "Cmts.User") (width 0.1) (tstamp f548aee8-7faa-4c61-b7a3-1d37f296e1b4))
  (fp_line (start 8.073999 -3.374999) (end 8.073999 3.374999) (layer "Cmts.User") (width 0.1) (tstamp f57881b5-c9c9-4bcf-be4b-dd8cfd505873))
  (fp_line (start 2.750693 3.374999) (end 8.454999 3.374999) (layer "Cmts.User") (width 0.1) (tstamp fd9899af-1db7-451f-947b-ed5e18bce2b6))
  (fp_line (start -3.81 -3.258693) (end -3.81 -3.81) (layer "F.CrtYd") (width 0.05) (tstamp 0155977b-38c6-4d03-80d0-f61b117e1f83))
  (fp_line (start -3.258693 -3.781399) (end 3.258693 -3.781399) (layer "F.CrtYd") (width 0.05) (tstamp 05551453-3a94-4924-93a1-3af33c189f3e))
  (fp_line (start -3.781399 3.258693) (end -3.781399 -3.258693) (layer "F.CrtYd") (width 0.05) (tstamp 0a4048c7-624d-4fa3-ba3c-7ff3245e1912))
  (fp_line (start -3.81 -3.81) (end -3.258693 -3.81) (layer "F.CrtYd") (width 0.05) (tstamp 15290291-2549-4336-a949-1259936bbab2))
  (fp_line (start 3.781399 -3.258693) (end 3.781399 3.258693) (layer "F.CrtYd") (width 0.05) (tstamp 176d6074-5422-4d72-bed9-44e0d9c24824))
  (fp_line (start -3.81 3.81) (end -3.81 3.258693) (layer "F.CrtYd") (width 0.05) (tstamp 24da24e4-9c92-4fb1-9d6e-108dbc2080e3))
  (fp_line (start 3.81 3.258693) (end 3.81 3.81) (layer "F.CrtYd") (width 0.05) (tstamp 2a57dfef-57ff-4923-b2fd-3ae635bc8b12))
  (fp_line (start -3.781399 3.258693) (end -3.781399 -3.258693) (layer "F.CrtYd") (width 0.05) (tstamp 3212c425-c411-4011-a581-8baffa4d28e1))
  (fp_line (start 3.781399 -3.258693) (end 3.781399 3.258693) (layer "F.CrtYd") (width 0.05) (tstamp 34a0342d-5b36-4996-8214-c168ae166910))
  (fp_line (start -3.81 -3.258693) (end -3.81 -3.81) (layer "F.CrtYd") (width 0.05) (tstamp 3b1e5992-bce2-4b1f-8e4c-41b77f29a20f))
  (fp_line (start 3.81 -3.81) (end 3.81 -3.258693) (layer "F.CrtYd") (width 0.05) (tstamp 3f439680-07dc-4cbc-b9f9-c9e67e0b80ea))
  (fp_line (start -3.81 3.258693) (end -3.781399 3.258693) (layer "F.CrtYd") (width 0.05) (tstamp 4281a0c9-fcd8-4a3a-b34c-1c027443b7aa))
  (fp_line (start 3.258693 -3.81) (end 3.81 -3.81) (layer "F.CrtYd") (width 0.05) (tstamp 46da584b-17e7-4565-bc9f-8b592fa475aa))
  (fp_line (start -3.258693 -3.781399) (end 3.258693 -3.781399) (layer "F.CrtYd") (width 0.05) (tstamp 4946c7fa-370b-450f-a712-0a10ad14f18e))
  (fp_line (start -3.81 3.258693) (end -3.781399 3.258693) (layer "F.CrtYd") (width 0.05) (tstamp 4f164966-96b4-4af1-b000-64fc7501cfa0))
  (fp_line (start 3.258693 -3.81) (end 3.81 -3.81) (layer "F.CrtYd") (width 0.05) (tstamp 52e9974c-1bf3-450c-b7f6-cdb6425e7c53))
  (fp_line (start -3.258693 3.781399) (end -3.258693 3.81) (layer "F.CrtYd") (width 0.05) (tstamp 57038b1f-b7ba-47d5-bb7a-7da603309b3b))
  (fp_line (start -3.81 -3.81) (end -3.258693 -3.81) (layer "F.CrtYd") (width 0.05) (tstamp 61bc208e-a0ed-4e87-bfe3-9763d7fed041))
  (fp_line (start -3.81 3.81) (end -3.81 3.258693) (layer "F.CrtYd") (width 0.05) (tstamp 6819d8a4-bef4-4f32-b6cd-3b793390edf1))
  (fp_line (start 3.81 -3.258693) (end 3.781399 -3.258693) (layer "F.CrtYd") (width 0.05) (tstamp 68772fa3-ce6c-4a68-b677-4871aa6dd6c0))
  (fp_line (start 3.81 -3.81) (end 3.81 -3.258693) (layer "F.CrtYd") (width 0.05) (tstamp 6f6d7569-06c9-4da2-b42c-bbe92c5e1917))
  (fp_line (start 3.81 3.258693) (end 3.81 3.81) (layer "F.CrtYd") (width 0.05) (tstamp 72cfec27-34ef-4f10-8504-41ebccd759e8))
  (fp_line (start -3.258693 -3.81) (end -3.258693 -3.781399) (layer "F.CrtYd") (width 0.05) (tstamp 748990b4-ff7f-4d8b-b243-60c7a7b87743))
  (fp_line (start 3.258693 -3.781399) (end 3.258693 -3.81) (layer "F.CrtYd") (width 0.05) (tstamp 76a45538-7d08-4c91-a8b1-e99187824be3))
  (fp_line (start 3.258693 3.781399) (end -3.258693 3.781399) (layer "F.CrtYd") (width 0.05) (tstamp 79e0093e-0c48-45d1-8201-d8c495955e44))
  (fp_line (start -3.258693 3.781399) (end -3.258693 3.81) (layer "F.CrtYd") (width 0.05) (tstamp 7a6f9a93-cda7-46c5-b0d5-02bc26172096))
  (fp_line (start 3.258693 -3.781399) (end 3.258693 -3.81) (layer "F.CrtYd") (width 0.05) (tstamp 7cb82e06-f3de-4747-9506-8f54668ce182))
  (fp_line (start -3.781399 -3.258693) (end -3.81 -3.258693) (layer "F.CrtYd") (width 0.05) (tstamp 911e458a-c00a-4d73-b032-b38b455659b8))
  (fp_line (start 3.81 3.81) (end 3.258693 3.81) (layer "F.CrtYd") (width 0.05) (tstamp a53fb125-0a87-4020-929f-425458b00a06))
  (fp_line (start 3.258693 3.81) (end 3.258693 3.781399) (layer "F.CrtYd") (width 0.05) (tstamp acb1c056-072a-408a-bb22-d9eadd732c4c))
  (fp_line (start -3.258693 3.81) (end -3.81 3.81) (layer "F.CrtYd") (width 0.05) (tstamp b03028e9-157f-4078-b41a-907fd1638637))
  (fp_line (start 3.781399 3.258693) (end 3.81 3.258693) (layer "F.CrtYd") (width 0.05) (tstamp b35ff460-f6f1-418e-86e1-f2b43e537370))
  (fp_line (start 3.258693 3.781399) (end -3.258693 3.781399) (layer "F.CrtYd") (width 0.05) (tstamp bf365065-440c-4c55-b68f-c00f1dac6df2))
  (fp_line (start 3.258693 3.81) (end 3.258693 3.781399) (layer "F.CrtYd") (width 0.05) (tstamp cb26dfdc-ca3a-4937-bd88-875a5953f5b5))
  (fp_line (start -3.781399 -3.258693) (end -3.81 -3.258693) (layer "F.CrtYd") (width 0.05) (tstamp cd2d259b-8dc0-46ba-a90d-033ee193706e))
  (fp_line (start 3.781399 3.258693) (end 3.81 3.258693) (layer "F.CrtYd") (width 0.05) (tstamp e43d7ba6-ce06-49a7-8634-0d7dc803e69f))
  (fp_line (start 3.81 3.81) (end 3.258693 3.81) (layer "F.CrtYd") (width 0.05) (tstamp eef4fba8-fee8-4fda-a172-d5d486dd46ed))
  (fp_line (start 3.81 -3.258693) (end 3.781399 -3.258693) (layer "F.CrtYd") (width 0.05) (tstamp ef09d57d-37d2-489c-a5f7-0b0e4daf4614))
  (fp_line (start -3.258693 -3.81) (end -3.258693 -3.781399) (layer "F.CrtYd") (width 0.05) (tstamp f248b6d2-2118-4767-85b6-d07965d159e9))
  (fp_line (start -3.258693 3.81) (end -3.81 3.81) (layer "F.CrtYd") (width 0.05) (tstamp ff70535e-deed-4fe7-a3d7-58f6274cbdb0))
  (fp_line (start -1.402715 -3.556) (end -1.402715 -3.556) (layer "F.Fab") (width 0.1) (tstamp 02f59ec8-9e35-4f4f-ad74-c5620a79c783))
  (fp_line (start -3.556 1.598041) (end -3.556 1.902841) (layer "F.Fab") (width 0.1) (tstamp 04716587-a44e-418d-ba57-60afa7c0605e))
  (fp_line (start -1.598041 3.556) (end -1.902841 3.556) (layer "F.Fab") (width 0.1) (tstamp 05e9d742-3205-4545-9848-4a0e2592cb08))
  (fp_line (start 3.556 -2.598293) (end 3.556 -2.903093) (layer "F.Fab") (width 0.1) (tstamp 06864e7a-251d-4288-aa95-6c5d8418ff84))
  (fp_line (start 2.098167 -3.556) (end 2.402967 -3.556) (layer "F.Fab") (width 0.1) (tstamp 0887c206-3a66-4b5e-82d7-7c21128b49d4))
  (fp_line (start -3.556 -1.598041) (end -3.556 -1.902841) (layer "F.Fab") (width 0.1) (tstamp 0921b09f-b713-4233-9a1b-9196bdd42a5f))
  (fp_line (start -0.402463 -3.556) (end -0.097663 -3.556) (layer "F.Fab") (width 0.1) (tstamp 098109b6-bfed-41e1-9593-bddad016ea18))
  (fp_line (start 1.598041 -3.556) (end 1.902841 -3.556) (layer "F.Fab") (width 0.1) (tstamp 09a01d93-288f-4506-a562-b85215b34258))
  (fp_line (start 3.556 -0.902589) (end 3.556 -0.902589) (layer "F.Fab") (width 0.1) (tstamp 0aa5d187-cd1b-434e-ac04-a4239ff779f5))
  (fp_line (start 0.902589 3.556) (end 0.597789 3.556) (layer "F.Fab") (width 0.1) (tstamp 0b9eb46d-1576-4667-903c-0dd65dd0874c))
  (fp_line (start -0.402463 3.556) (end -0.097663 3.556) (layer "F.Fab") (width 0.1) (tstamp 0e04b87f-4ea6-4928-8adc-9a1ccfc1d5bb))
  (fp_line (start -0.597789 3.556) (end -0.902589 3.556) (layer "F.Fab") (width 0.1) (tstamp 0f6251ad-594f-4552-a68a-02c48c090358))
  (fp_line (start 3.556 -2.098167) (end 3.556 -2.402967) (layer "F.Fab") (width 0.1) (tstamp 0f9c162f-8efc-4fe4-8fd8-0bbc6b69fa1d))
  (fp_line (start 3.556 2.098167) (end 3.556 2.098167) (layer "F.Fab") (width 0.1) (tstamp 100d2a3a-3563-41d1-8d8a-ddb39323c253))
  (fp_line (start -3.556 2.098167) (end -3.556 2.098167) (layer "F.Fab") (width 0.1) (tstamp 1038bc53-99de-4b70-8cfd-480964829b95))
  (fp_line (start -3.556 -0.402463) (end -3.556 -0.097663) (layer "F.Fab") (width 0.1) (tstamp 12b20531-f70d-425e-aa6b-9f8c1dc05208))
  (fp_line (start 3.556 -1.598041) (end 3.556 -1.598041) (layer "F.Fab") (width 0.1) (tstamp 12e14c89-b5b0-49fa-8e97-1611fc97e092))
  (fp_line (start -1.902841 -3.556) (end -1.902841 -3.556) (layer "F.Fab") (width 0.1) (tstamp 139e5ec0-c045-4d91-be42-b4acf22d3338))
  (fp_line (start -3.556 -1.402715) (end -3.556 -1.402715) (layer "F.Fab") (width 0.1) (tstamp 14a607b2-7c55-4520-b4d8-46bcca72fb65))
  (fp_line (start 3.556 -2.402967) (end 3.556 -2.402967) (layer "F.Fab") (width 0.1) (tstamp 18024dc2-7b3f-4dd8-9bd3-06fa21ced7b0))
  (fp_line (start -3.556 1.402715) (end -3.556 1.097915) (layer "F.Fab") (width 0.1) (tstamp 18180f33-f49e-4c81-ba1c-70cdc7e98126))
  (fp_line (start -3.556 0.902589) (end -3.556 0.597789) (layer "F.Fab") (width 0.1) (tstamp 19193437-c06a-480c-b1cd-bc034912a3cc))
  (fp_line (start -0.902589 -3.556) (end -0.597789 -3.556) (layer "F.Fab") (width 0.1) (tstamp 197ee073-8df2-40ec-bccc-00e85fb1ca6e))
  (fp_line (start 0.402463 3.556) (end 0.097663 3.556) (layer "F.Fab") (width 0.1) (tstamp 1bb0e231-aa8a-4952-9f83-0c6186fe9b76))
  (fp_line (start -3.556 -1.097915) (end -3.556 -1.402715) (layer "F.Fab") (width 0.1) (tstamp 1c0ca95e-1ebf-4fcc-b5f0-fb87d0329255))
  (fp_line (start -3.556 1.402715) (end -3.556 1.402715) (layer "F.Fab") (width 0.1) (tstamp 1c83bd42-0034-452f-984c-359e4b56b0ac))
  (fp_line (start -0.597789 -3.556) (end -0.597789 -3.556) (layer "F.Fab") (width 0.1) (tstamp 1c906085-d1de-4322-8260-c3da1fa2c346))
  (fp_line (start 2.402967 3.556) (end 2.098167 3.556) (layer "F.Fab") (width 0.1) (tstamp 1d9e652f-f434-4f26-b3a7-c8424bc52deb))
  (fp_line (start -1.402715 3.556) (end -1.402715 3.556) (layer "F.Fab") (width 0.1) (tstamp 1ea221b6-b18b-4925-93b3-4fd978d05d5e))
  (fp_line (start -0.597789 3.556) (end -0.597789 3.556) (layer "F.Fab") (width 0.1) (tstamp 1ef15032-a886-4e84-afa7-f290317637b5))
  (fp_line (start 2.598293 3.556) (end 2.598293 3.556) (layer "F.Fab") (width 0.1) (tstamp 1f095f88-a709-4dce-b0ed-23ea45ee11aa))
  (fp_line (start 0.402463 -3.556) (end 0.097663 -3.556) (layer "F.Fab") (width 0.1) (tstamp 21abc1b5-4c19-42cf-97fb-c6c42a0b3939))
  (fp_line (start -3.556 1.097915) (end -3.556 1.402715) (layer "F.Fab") (width 0.1) (tstamp 226a922f-5ac2-439b-a85a-8f1e92b1c5fa))
  (fp_line (start -0.097663 -3.556) (end -0.097663 -3.556) (layer "F.Fab") (width 0.1) (tstamp 2382424b-0905-467b-a458-dad739d3178b))
  (fp_line (start -1.097915 3.556) (end -1.097915 3.556) (layer "F.Fab") (width 0.1) (tstamp 2541528d-3501-47c3-943c-145d30386a30))
  (fp_line (start -3.556 0.097663) (end -3.556 0.402463) (layer "F.Fab") (width 0.1) (tstamp 256ea15b-8858-4372-812f-a1876e96250a))
  (fp_line (start 3.556 2.598293) (end 3.556 2.903093) (layer "F.Fab") (width 0.1) (tstamp 281fd3ba-f379-4270-93fd-095a7b200461))
  (fp_line (start 3.556 -1.097915) (end 3.556 -1.097915) (layer "F.Fab") (width 0.1) (tstamp 29720caa-0132-48e4-8cc6-b9cbc4f8cab7))
  (fp_line (start 0.097663 -3.556) (end 0.402463 -3.556) (layer "F.Fab") (width 0.1) (tstamp 2a9dc246-15a7-4c3b-a212-00808becdc42))
  (fp_line (start -3.556 -1.902841) (end -3.556 -1.598041) (layer "F.Fab") (width 0.1) (tstamp 2cf9c3f1-0d50-48cb-ab20-2dde6aa507ea))
  (fp_line (start 2.402967 -3.556) (end 2.402967 -3.556) (layer "F.Fab") (width 0.1) (tstamp 2d1cfacc-4931-4d09-ad45-a86a038f8b89))
  (fp_line (start -1.902841 -3.556) (end -1.598041 -3.556) (layer "F.Fab") (width 0.1) (tstamp 2d911663-0d4a-4001-a82d-07da47674458))
  (fp_line (start 1.402715 3.556) (end 1.097915 3.556) (layer "F.Fab") (width 0.1) (tstamp 2eccc1ea-4105-4f7f-873e-7caaca3b3205))
  (fp_line (start 0.597789 -3.556) (end 0.597789 -3.556) (layer "F.Fab") (width 0.1) (tstamp 2f6cbfe8-42c7-4e33-ba50-e35c68da5d9a))
  (fp_line (start -3.556 0.402463) (end -3.556 0.402463) (layer "F.Fab") (width 0.1) (tstamp 30eb1ec1-bd16-42cc-8f13-775ce95852dd))
  (fp_line (start 1.902841 -3.556) (end 1.902841 -3.556) (layer "F.Fab") (width 0.1) (tstamp 310c88ea-f936-439c-9bd2-56d5c9f1341b))
  (fp_line (start 1.902841 3.556) (end 1.598041 3.556) (layer "F.Fab") (width 0.1) (tstamp 31780cb9-6c65-48a5-812f-8324e8bc24db))
  (fp_line (start -3.556 -0.597789) (end -3.556 -0.597789) (layer "F.Fab") (width 0.1) (tstamp 31c187d4-87ad-4d60-bd8f-98cf0ce183f8))
  (fp_line (start -3.556 -2.402967) (end -3.556 -2.402967) (layer "F.Fab") (width 0.1) (tstamp 33162832-b3a5-48fd-b3b3-10a35f9ee0f0))
  (fp_line (start 2.903093 3.556) (end 2.598293 3.556) (layer "F.Fab") (width 0.1) (tstamp 3381ee4a-b8f6-4a20-a30b-ff1a43371d37))
  (fp_line (start 3.556 -2.903093) (end 3.556 -2.598293) (layer "F.Fab") (width 0.1) (tstamp 3b08cdae-aebd-4f35-9b5c-97d2a628c3d6))
  (fp_line (start 2.098167 3.556) (end 2.402967 3.556) (layer "F.Fab") (width 0.1) (tstamp 3cd8e57b-7a37-486d-aa9c-3968fc216d22))
  (fp_line (start -1.097915 -3.556) (end -1.097915 -3.556) (layer "F.Fab") (width 0.1) (tstamp 40a269dc-ccd8-430d-a1e9-5850de9fb41f))
  (fp_line (start -3.556 2.402967) (end -3.556 2.098167) (layer "F.Fab") (width 0.1) (tstamp 42ff79f5-7aba-4233-be21-4072d4762c22))
  (fp_line (start 3.556 2.903093) (end 3.556 2.598293) (layer "F.Fab") (width 0.1) (tstamp 44681856-3c12-4f6b-a588-b0d5e9243d70))
  (fp_line (start 2.903093 -3.556) (end 2.903093 -3.556) (layer "F.Fab") (width 0.1) (tstamp 45e3a90b-d22e-4e72-a1c6-03596189a34c))
  (fp_line (start -1.598041 -3.556) (end -1.598041 -3.556) (layer "F.Fab") (width 0.1) (tstamp 4683f672-4d05-4749-8404-1ed4b1e7061b))
  (fp_line (start -0.097663 -3.556) (end -0.402463 -3.556) (layer "F.Fab") (width 0.1) (tstamp 4725caf9-fd3b-453d-bc25-8fa970919cfc))
  (fp_line (start -3.556 0.402463) (end -3.556 0.097663) (layer "F.Fab") (width 0.1) (tstamp 47531507-ee9d-4c3f-8806-390d7f3631d2))
  (fp_line (start -3.556 1.902841) (end -3.556 1.598041) (layer "F.Fab") (width 0.1) (tstamp 4af93b7f-4d56-4dd6-8b00-fbfc2a1f8cef))
  (fp_line (start 3.556 1.598041) (end 3.556 1.598041) (layer "F.Fab") (width 0.1) (tstamp 4b93dd36-5ccb-4130-8cea-d6f6cee7f062))
  (fp_line (start 1.097915 3.556) (end 1.097915 3.556) (layer "F.Fab") (width 0.1) (tstamp 4ba59d19-3c4b-4311-9719-d0edc899051e))
  (fp_line (start -2.598293 3.556) (end -2.598293 3.556) (layer "F.Fab") (width 0.1) (tstamp 4c44b69a-6c6a-49ae-a5b8-952bf830ac18))
  (fp_line (start 1.097915 -3.556) (end 1.097915 -3.556) (layer "F.Fab") (width 0.1) (tstamp 4fa2b0ed-8ed3-4071-8348-75ae75d4ae52))
  (fp_line (start -3.556 1.097915) (end -3.556 1.097915) (layer "F.Fab") (width 0.1) (tstamp 4fe21c75-0ccd-4490-98b1-8c922bb64cdc))
  (fp_line (start -3.556 -0.097663) (end -3.556 -0.402463) (layer "F.Fab") (width 0.1) (tstamp 51f3d9d7-479c-459d-8df1-2e59f12da1f0))
  (fp_line (start -3.556 -2.402967) (end -3.556 -2.098167) (layer "F.Fab") (width 0.1) (tstamp 53d636c0-d779-477e-bcc1-0f4fec21faf9))
  (fp_line (start 0.097663 3.556) (end 0.402463 3.556) (layer "F.Fab") (width 0.1) (tstamp 5536691c-6c8c-4639-845d-8cf854e48c9d))
  (fp_line (start 3.556 -2.402967) (end 3.556 -2.098167) (layer "F.Fab") (width 0.1) (tstamp 583090cd-1918-4408-aee0-1b204613cfe4))
  (fp_line (start 1.598041 -3.556) (end 1.598041 -3.556) (layer "F.Fab") (width 0.1) (tstamp 5b6da1c6-acae-4ca8-87c1-426b8c553f9b))
  (fp_line (start -3.556 1.598041) (end -3.556 1.598041) (layer "F.Fab") (width 0.1) (tstamp 5bff9f24-bff0-481e-b774-9f5a3a1a5dbb))
  (fp_line (start -2.903093 -3.556) (end -2.598293 -3.556) (layer "F.Fab") (width 0.1) (tstamp 603fc6dd-4690-4fc8-8b44-56d17ed63c5e))
  (fp_line (start 3.556 0.097663) (end 3.556 0.097663) (layer "F.Fab") (width 0.1) (tstamp 60ac9bbc-ab88-461c-84b2-ab062e70f4f4))
  (fp_line (start -3.556 -2.598293) (end -3.556 -2.903093) (layer "F.Fab") (width 0.1) (tstamp 61c2e5e7-c8a6-40b6-ad8a-380fcca5b46b))
  (fp_line (start 3.556 0.402463) (end 3.556 0.402463) (layer "F.Fab") (width 0.1) (tstamp 624d2f49-55a9-4026-926e-56da40049d01))
  (fp_line (start 1.402715 -3.556) (end 1.097915 -3.556) (layer "F.Fab") (width 0.1) (tstamp 6686c5fd-67b3-4c26-a60c-b979aa371890))
  (fp_line (start 2.903093 3.556) (end 2.903093 3.556) (layer "F.Fab") (width 0.1) (tstamp 673aa352-82b3-4e80-a3a7-4b39dde48c96))
  (fp_line (start 3.556 -3.556) (end -3.556 -3.556) (layer "F.Fab") (width 0.1) (tstamp 67f2d378-00dc-42d5-9279-3741999fa56c))
  (fp_line (start -3.556 -0.097663) (end -3.556 -0.097663) (layer "F.Fab") (width 0.1) (tstamp 67fc1a79-ebbe-4f91-a1ac-721372ab9e50))
  (fp_line (start 3.556 0.902589) (end 3.556 0.902589) (layer "F.Fab") (width 0.1) (tstamp 693d4885-5c36-45ce-8a24-b4692a572558))
  (fp_line (start 2.402967 -3.556) (end 2.098167 -3.556) (layer "F.Fab") (width 0.1) (tstamp 694fd5f4-c111-44b1-b42c-1b87063c8ba5))
  (fp_line (start 3.556 -0.097663) (end 3.556 -0.097663) (layer "F.Fab") (width 0.1) (tstamp 6987431d-46da-4786-8718-591cfd165b0a))
  (fp_line (start -2.903093 -3.556) (end -2.903093 -3.556) (layer "F.Fab") (width 0.1) (tstamp 6a8413ac-5ff8-4df9-b89c-e049cf617f69))
  (fp_line (start 3.556 1.097915) (end 3.556 1.097915) (layer "F.Fab") (width 0.1) (tstamp 6b718b2d-56e5-4d15-a7d7-f891406e50db))
  (fp_line (start 3.556 2.098167) (end 3.556 2.402967) (layer "F.Fab") (width 0.1) (tstamp 6bcae9cc-bd52-4f97-82ef-304a9a747f94))
  (fp_line (start -3.556 2.098167) (end -3.556 2.402967) (layer "F.Fab") (width 0.1) (tstamp 6f256983-5eb1-4fc1-b6c0-28ce277484ee))
  (fp_line (start 3.556 -0.597789) (end 3.556 -0.902589) (layer "F.Fab") (width 0.1) (tstamp 7054d370-b592-4b76-9916-601c7db6771a))
  (fp_line (start 1.097915 -3.556) (end 1.402715 -3.556) (layer "F.Fab") (width 0.1) (tstamp 706b9dd2-3531-464e-accb-a6626ab67dbc))
  (fp_line (start -3.556 -2.098167) (end -3.556 -2.098167) (layer "F.Fab") (width 0.1) (tstamp 70dff86c-3471-46b6-bc2b-9ba0f3f8fe5d))
  (fp_line (start 0.597789 -3.556) (end 0.902589 -3.556) (layer "F.Fab") (width 0.1) (tstamp 70e27f74-f7b1-45cd-a08a-ab1763b1011f))
  (fp_line (start 2.598293 -3.556) (end 2.903093 -3.556) (layer "F.Fab") (width 0.1) (tstamp 71325b6b-d379-4e71-8141-87a630c26595))
  (fp_line (start -3.556 -0.902589) (end -3.556 -0.902589) (layer "F.Fab") (width 0.1) (tstamp 71e75191-94a2-41e8-bc5e-18c7e819cc86))
  (fp_line (start 0.597789 3.556) (end 0.902589 3.556) (layer "F.Fab") (width 0.1) (tstamp 722d1bea-4a35-47d8-b156-3e7b34773a9b))
  (fp_line (start -1.902841 3.556) (end -1.902841 3.556) (layer "F.Fab") (width 0.1) (tstamp 752fc55c-e76e-432a-bc83-693481fcb78d))
  (fp_line (start -3.556 1.902841) (end -3.556 1.902841) (layer "F.Fab") (width 0.1) (tstamp 76160d84-5901-4339-b303-3b1762fa2db1))
  (fp_line (start 1.598041 3.556) (end 1.598041 3.556) (layer "F.Fab") (width 0.1) (tstamp 78a4b1b9-28da-4334-a6d3-87c511b88571))
  (fp_line (start 2.598293 -3.556) (end 2.598293 -3.556) (layer "F.Fab") (width 0.1) (tstamp 7a993f1b-b438-43da-b6d4-c0dbf63b8edc))
  (fp_line (start -2.402967 3.556) (end -2.098167 3.556) (layer "F.Fab") (width 0.1) (tstamp 7ec9ed82-d1f1-4917-9dbb-0c6c1b0287dd))
  (fp_line (start 3.556 0.097663) (end 3.556 0.402463) (layer "F.Fab") (width 0.1) (tstamp 7fdb7495-883d-4f65-8d5c-ea6abbcf2fa7))
  (fp_line (start -0.902589 3.556) (end -0.597789 3.556) (layer "F.Fab") (width 0.1) (tstamp 82fcfd31-4d72-48cc-b70b-2eada0c059d4))
  (fp_line (start -3.556 2.598293) (end -3.556 2.598293) (layer "F.Fab") (width 0.1) (tstamp 83050a1f-a156-4f88-9c2f-b9261c390eb7))
  (fp_line (start 3.556 -2.098167) (end 3.556 -2.098167) (layer "F.Fab") (width 0.1) (tstamp 83d87f61-1f49-4ebf-9b72-0d35038e0022))
  (fp_line (start -3.556 -3.556) (end -3.556 3.556) (layer "F.Fab") (width 0.1) (tstamp 83ebe82c-ee7e-4459-a815-86e3dcde4914))
  (fp_line (start -0.597789 -3.556) (end -0.902589 -3.556) (layer "F.Fab") (width 0.1) (tstamp 84172753-dc4b-4e2f-8009-fedcb93b8b2e))
  (fp_line (start 3.556 -0.597789) (end 3.556 -0.597789) (layer "F.Fab") (width 0.1) (tstamp 84cf4453-2e8f-4291-a518-c15e255d2112))
  (fp_line (start 3.556 -0.902589) (end 3.556 -0.597789) (layer "F.Fab") (width 0.1) (tstamp 855ed567-09e1-4ac3-90b0-f7e25f211a13))
  (fp_line (start -3.556 -2.903093) (end -3.556 -2.903093) (layer "F.Fab") (width 0.1) (tstamp 85aa4b87-c480-49c9-b320-1c821457a163))
  (fp_line (start -0.097663 3.556) (end -0.402463 3.556) (layer "F.Fab") (width 0.1) (tstamp 862a73f3-01b3-4896-9f12-5df6cda1a8d5))
  (fp_line (start -2.598293 3.556) (end -2.903093 3.556) (layer "F.Fab") (width 0.1) (tstamp 86fd4569-f291-4aa0-8e46-c41dae14a203))
  (fp_line (start 3.556 2.402967) (end 3.556 2.402967) (layer "F.Fab") (width 0.1) (tstamp 8b05e9fa-9931-4d5e-b6ef-45efb4e85719))
  (fp_line (start -2.598293 -3.556) (end -2.598293 -3.556) (layer "F.Fab") (width 0.1) (tstamp 8b17bf9b-ceaa-4b5b-9470-7691c81aa79a))
  (fp_line (start 3.556 -1.097915) (end 3.556 -1.402715) (layer "F.Fab") (width 0.1) (tstamp 8b6d806c-8a60-462c-ad0d-87251a144ddd))
  (fp_line (start -3.556 2.598293) (end -3.556 2.903093) (layer "F.Fab") (width 0.1) (tstamp 913e21aa-576c-4523-842c-40d14eb733db))
  (fp_line (start -2.402967 3.556) (end -2.402967 3.556) (layer "F.Fab") (width 0.1) (tstamp 933b3c63-ea97-49d6-801d-459d47299262))
  (fp_line (start -2.598293 -3.556) (end -2.903093 -3.556) (layer "F.Fab") (width 0.1) (tstamp 93aec781-9154-453b-9543-70ddd0ef21fb))
  (fp_line (start 3.556 1.598041) (end 3.556 1.902841) (layer "F.Fab") (width 0.1) (tstamp 93d2545f-b6ce-4ba9-82ed-acc320bd3e21))
  (fp_line (start 0.597789 3.556) (end 0.597789 3.556) (layer "F.Fab") (width 0.1) (tstamp 960f0525-833d-4750-9000-8d2ab2e5062b))
  (fp_line (start -3.556 2.903093) (end -3.556 2.598293) (layer "F.Fab") (width 0.1) (tstamp 97144878-f11a-4230-a380-24d8be096fd8))
  (fp_line (start 0.902589 -3.556) (end 0.597789 -3.556) (layer "F.Fab") (width 0.1) (tstamp 97207351-f8d4-4db3-9d58-7a9819e97ecc))
  (fp_line (start -3.556 -2.598293) (end -3.556 -2.598293) (layer "F.Fab") (width 0.1) (tstamp 98dc3fe2-6e08-47d0-8cdd-74ee2570c682))
  (fp_line (start 3.556 1.402715) (end 3.556 1.097915) (layer "F.Fab") (width 0.1) (tstamp 9a48b372-50da-499d-bd48-00a94cbe6a01))
  (fp_line (start 0.097663 3.556) (end 0.097663 3.556) (layer "F.Fab") (width 0.1) (tstamp 9b2e1633-ec94-413d-9fda-19a27acb1251))
  (fp_line (start 3.556 1.902841) (end 3.556 1.902841) (layer "F.Fab") (width 0.1) (tstamp 9b532d94-5adf-40a9-aa2f-bc58284f6753))
  (fp_line (start -3.556 2.903093) (end -3.556 2.903093) (layer "F.Fab") (width 0.1) (tstamp 9c0e35d0-a7a3-469d-8a35-5ddf96d09b03))
  (fp_line (start 3.556 -1.598041) (end 3.556 -1.902841) (layer "F.Fab") (width 0.1) (tstamp 9c497e2c-fb11-4a31-9789-3f114eb5df67))
  (fp_line (start 2.903093 -3.556) (end 2.598293 -3.556) (layer "F.Fab") (width 0.1) (tstamp 9e15554b-96c3-44f9-8766-e34e18f4ddac))
  (fp_line (start 0.902589 -3.556) (end 0.902589 -3.556) (layer "F.Fab") (width 0.1) (tstamp a179d7fa-c961-4242-a060-754a50ffd1ea))
  (fp_line (start -2.098167 3.556) (end -2.098167 3.556) (layer "F.Fab") (width 0.1) (tstamp a331ad19-5dc6-495c-bc5c-9bc67c295183))
  (fp_line (start 3.556 2.402967) (end 3.556 2.098167) (layer "F.Fab") (width 0.1) (tstamp a456bd40-b2fd-424c-b931-b7b320bd8eee))
  (fp_line (start -2.903093 3.556) (end -2.903093 3.556) (layer "F.Fab") (width 0.1) (tstamp a485a506-d404-4163-8966-e823be70f215))
  (fp_line (start -3.556 -2.903093) (end -3.556 -2.598293) (layer "F.Fab") (width 0.1) (tstamp a866eb7c-5c72-495b-a9ae-87d9107a0e89))
  (fp_line (start 3.556 1.402715) (end 3.556 1.402715) (layer "F.Fab") (width 0.1) (tstamp a96ebae0-d300-4c3c-9829-e2f588cfc67e))
  (fp_line (start 3.556 -0.402463) (end 3.556 -0.097663) (layer "F.Fab") (width 0.1) (tstamp acd18701-a4ed-492d-a44b-f46c0ff11a07))
  (fp_line (start -1.598041 3.556) (end -1.598041 3.556) (layer "F.Fab") (width 0.1) (tstamp af541b7f-47e2-4338-86d3-64a72b5b7aba))
  (fp_line (start 1.402715 3.556) (end 1.402715 3.556) (layer "F.Fab") (width 0.1) (tstamp b183adec-ef65-4ad2-8972-7ecf4e88b1a1))
  (fp_line (start -2.098167 3.556) (end -2.402967 3.556) (layer "F.Fab") (width 0.1) (tstamp b18b5e91-09bf-4e66-a5c9-45d804ff0159))
  (fp_line (start -0.902589 -3.556) (end -0.902589 -3.556) (layer "F.Fab") (width 0.1) (tstamp b2378185-7fff-4c42-afc5-18ead00ec14e))
  (fp_line (start 1.902841 -3.556) (end 1.598041 -3.556) (layer "F.Fab") (width 0.1) (tstamp b3540e45-a8cd-4dc7-8320-bbe8c718bdc3))
  (fp_line (start 3.556 2.598293) (end 3.556 2.598293) (layer "F.Fab") (width 0.1) (tstamp b38d53ee-2b58-490b-b9a8-0fa94f21b127))
  (fp_line (start -2.402967 -3.556) (end -2.402967 -3.556) (layer "F.Fab") (width 0.1) (tstamp b6830578-f2fe-492b-aac6-727ca18df6ba))
  (fp_line (start 1.402715 -3.556) (end 1.402715 -3.556) (layer "F.Fab") (width 0.1) (tstamp b6a00288-eda4-46a7-98c9-610b357038a0))
  (fp_line (start -0.402463 3.556) (end -0.402463 3.556) (layer "F.Fab") (width 0.1) (tstamp b837e7c7-fa4f-4818-8564-7bc5ab62a47e))
  (fp_line (start 1.902841 3.556) (end 1.902841 3.556) (layer "F.Fab") (width 0.1) (tstamp ba1b0db7-845a-426b-afed-d43e57e8127d))
  (fp_line (start -3.556 0.597789) (end -3.556 0.597789) (layer "F.Fab") (width 0.1) (tstamp bc3ff8ab-246e-4a6c-b2d2-f32e929923b9))
  (fp_line (start 3.556 0.402463) (end 3.556 0.097663) (layer "F.Fab") (width 0.1) (tstamp bd58ad52-36c7-460d-b58d-1e0ca17757a0))
  (fp_line (start -1.097915 -3.556) (end -1.402715 -3.556) (layer "F.Fab") (width 0.1) (tstamp be51fd1f-bf89-42bd-97b2-4dab1b586650))
  (fp_line (start -1.598041 -3.556) (end -1.902841 -3.556) (layer "F.Fab") (width 0.1) (tstamp bf36e9d5-29fc-4979-9020-81e493e3b1c6))
  (fp_line (start -3.556 -0.902589) (end -3.556 -0.597789) (layer "F.Fab") (width 0.1) (tstamp c02f0c67-be29-4695-acb9-81afacbcd384))
  (fp_line (start 3.556 -0.097663) (end 3.556 -0.402463) (layer "F.Fab") (width 0.1) (tstamp c13cb299-c112-4746-b939-055f3bcd5f66))
  (fp_line (start 1.097915 3.556) (end 1.402715 3.556) (layer "F.Fab") (width 0.1) (tstamp c30ad939-a420-4443-a62a-fbd331126ca4))
  (fp_line (start -3.556 3.556) (end 3.556 3.556) (layer "F.Fab") (width 0.1) (tstamp c3196ac5-b462-4c69-a461-0afd179c3721))
  (fp_line (start 2.098167 3.556) (end 2.098167 3.556) (layer "F.Fab") (width 0.1) (tstamp c3341a14-6e90-4cd3-abd7-f1075701d173))
  (fp_line (start 1.598041 3.556) (end 1.902841 3.556) (layer "F.Fab") (width 0.1) (tstamp c3cd8eaf-745d-46d0-af30-59f2d1be1db6))
  (fp_line (start 3.556 -2.598293) (end 3.556 -2.598293) (layer "F.Fab") (width 0.1) (tstamp c51b4129-c609-4071-9aee-8812a73e4fbf))
  (fp_line (start 3.556 2.903093) (end 3.556 2.903093) (layer "F.Fab") (width 0.1) (tstamp c5611c60-3b38-4144-8904-cf4a54afe589))
  (fp_line (start 3.556 1.902841) (end 3.556 1.598041) (layer "F.Fab") (width 0.1) (tstamp c777dca5-0273-48fd-8f55-44cabe71c35d))
  (fp_line (start 3.556 0.597789) (end 3.556 0.902589) (layer "F.Fab") (width 0.1) (tstamp c7e817e0-ba6d-4ae9-bfda-5f304867e3e3))
  (fp_line (start 0.097663 -3.556) (end 0.097663 -3.556) (layer "F.Fab") (width 0.1) (tstamp cb0b1ab5-9bb3-4739-8432-5bb872c1dcaf))
  (fp_line (start 3.556 -1.402715) (end 3.556 -1.097915) (layer "F.Fab") (width 0.1) (tstamp cc90fba5-c4b5-4c30-aa34-25f521c17375))
  (fp_line (start 3.556 0.597789) (end 3.556 0.597789) (layer "F.Fab") (width 0.1) (tstamp ce8e88d7-f820-4969-922b-021b53795352))
  (fp_line (start -0.097663 3.556) (end -0.097663 3.556) (layer "F.Fab") (width 0.1) (tstamp d34759ea-be41-4920-877b-f3da226d7c5d))
  (fp_line (start -0.402463 -3.556) (end -0.402463 -3.556) (layer "F.Fab") (width 0.1) (tstamp d7a53569-e088-46e2-8314-072cb6504943))
  (fp_line (start -1.402715 -3.556) (end -1.097915 -3.556) (layer "F.Fab") (width 0.1) (tstamp d84d5d47-57a7-42ec-b083-1ded8201a6ac))
  (fp_line (start 3.556 3.556) (end 3.556 -3.556) (layer "F.Fab") (width 0.1) (tstamp d8fbcb8a-6ad1-4caa-81c6-cab180067dfd))
  (fp_line (start -2.098167 -3.556) (end -2.402967 -3.556) (layer "F.Fab") (width 0.1) (tstamp da4ad6f3-5f0a-4c19-ae8d-5aa0f1ec37b7))
  (fp_line (start -3.556 0.597789) (end -3.556 0.902589) (layer "F.Fab") (width 0.1) (tstamp de1b4a89-62ac-4fd3-b54c-5043156a6d87))
  (fp_line (start -3.556 -1.598041) (end -3.556 -1.598041) (layer "F.Fab") (width 0.1) (tstamp de4015a2-9976-423c-a677-778e53a0caa0))
  (fp_line (start 3.556 -2.903093) (end 3.556 -2.903093) (layer "F.Fab") (width 0.1) (tstamp dfea10a7-1cbe-4c44-a951-08c8c82414b9))
  (fp_line (start -3.556 2.402967) (end -3.556 2.402967) (layer "F.Fab") (width 0.1) (tstamp e2ca9cef-f053-499f-a166-187c41a68d8c))
  (fp_line (start -3.556 -2.098167) (end -3.556 -2.402967) (layer "F.Fab") (width 0.1) (tstamp e3788626-21d5-4a01-b4d2-0008805cb618))
  (fp_line (start -3.556 -0.597789) (end -3.556 -0.902589) (layer "F.Fab") (width 0.1) (tstamp e46dd247-41ab-4a11-88ca-2cd335bf69f8))
  (fp_line (start 3.556 0.902589) (end 3.556 0.597789) (layer "F.Fab") (width 0.1) (tstamp e4d20864-fb88-4526-a011-fb7569f00b9f))
  (fp_line (start 2.098167 -3.556) (end 2.098167 -3.556) (layer "F.Fab") (width 0.1) (tstamp e87240fd-bc12-4873-bb37-c0f4e2a13cfd))
  (fp_line (start -3.556 -1.902841) (end -3.556 -1.902841) (layer "F.Fab") (width 0.1) (tstamp ea79b64e-4da8-4f84-9d04-45532a6e7829))
  (fp_line (start 0.402463 -3.556) (end 0.402463 -3.556) (layer "F.Fab") (width 0.1) (tstamp ebf85c8b-1212-4d36-a69f-ecfe45ed0201))
  (fp_line (start 3.556 1.097915) (end 3.556 1.402715) (layer "F.Fab") (width 0.1) (tstamp ed11372f-cfff-4bd0-a891-3eb08729dbfd))
  (fp_line (start -2.402967 -3.556) (end -2.098167 -3.556) (layer "F.Fab") (width 0.1) (tstamp ee9cca1e-67e0-423d-81dd-8e074c191193))
  (fp_line (start -3.556 0.902589) (end -3.556 0.902589) (layer "F.Fab") (width 0.1) (tstamp f2f0b653-7894-4870-9bf7-61faa5ff192e))
  (fp_line (start -2.903093 3.556) (end -2.598293 3.556) (layer "F.Fab") (width 0.1) (tstamp f3344bad-768f-4031-b296-63d7840125e5))
  (fp_line (start -2.098167 -3.556) (end -2.098167 -3.556) (layer "F.Fab") (width 0.1) (tstamp f399139d-34f3-4d9f-8020-64bb25272dd1))
  (fp_line (start -3.556 -2.286) (end -2.286 -3.556) (layer "F.Fab") (width 0.1) (tstamp f416ae3e-d097-4bf6-91d1-72efe78f7408))
  (fp_line (start 3.556 -0.402463) (end 3.556 -0.402463) (layer "F.Fab") (width 0.1) (tstamp f582a032-2f09-4662-8757-5c8bf0aa1311))
  (fp_line (start 3.556 -1.902841) (end 3.556 -1.902841) (layer "F.Fab") (width 0.1) (tstamp f88362d2-4cb0-4f5f-872f-1848d7137873))
  (fp_line (start -1.097915 3.556) (end -1.402715 3.556) (layer "F.Fab") (width 0.1) (tstamp f8db0788-75ad-42bb-8a8f-72f43869f52c))
  (fp_line (start 2.402967 3.556) (end 2.402967 3.556) (layer "F.Fab") (width 0.1) (tstamp f9aefa77-a7f4-4a48-8606-c1a08e82b08a))
  (fp_line (start 3.556 -1.402715) (end 3.556 -1.402715) (layer "F.Fab") (width 0.1) (tstamp f9eea97b-b5c5-4fb3-a982-71d4c003a44e))
  (fp_line (start 0.402463 3.556) (end 0.402463 3.556) (layer "F.Fab") (width 0.1) (tstamp fa2f7df1-b3c4-4d93-bb46-d4a43379fb61))
  (fp_line (start -3.556 -1.402715) (end -3.556 -1.097915) (layer "F.Fab") (width 0.1) (tstamp fa4189a4-5ba5-44e0-8ed3-4dc58a3055a6))
  (fp_line (start -1.902841 3.556) (end -1.598041 3.556) (layer "F.Fab") (width 0.1) (tstamp fa6312af-02b8-4776-9f28-131f8f8d08cc))
  (fp_line (start 3.556 -1.902841) (end 3.556 -1.598041) (layer "F.Fab") (width 0.1) (tstamp fb4d994e-c8cb-4eab-a568-76e6853b4efc))
  (fp_line (start 0.902589 3.556) (end 0.902589 3.556) (layer "F.Fab") (width 0.1) (tstamp fbea2f66-5919-46cb-88a8-1e85e390f5d3))
  (fp_line (start -3.556 -1.097915) (end -3.556 -1.097915) (layer "F.Fab") (width 0.1) (tstamp fd3d7f39-592a-4cd2-b369-8c6e207395d7))
  (fp_line (start 2.598293 3.556) (end 2.903093 3.556) (layer "F.Fab") (width 0.1) (tstamp fdf57f9c-3726-41e6-8494-25e23fc2c7ba))
  (fp_line (start -3.556 -0.402463) (end -3.556 -0.402463) (layer "F.Fab") (width 0.1) (tstamp fe7a54f0-16c5-4831-a0a4-9812c5c0c12d))
  (fp_line (start -1.402715 3.556) (end -1.097915 3.556) (layer "F.Fab") (width 0.1) (tstamp ff25ee76-0924-4ed2-9f82-f8d41e8f6380))
  (fp_line (start -0.902589 3.556) (end -0.902589 3.556) (layer "F.Fab") (width 0.1) (tstamp ff655976-5b9a-4df3-b248-ec9d8c8caf5e))
  (fp_line (start -3.556 0.097663) (end -3.556 0.097663) (layer "F.Fab") (width 0.1) (tstamp ff68f064-b003-4c2a-b55f-e7f826c08a14))
  (pad "1" smd rect (at -3.375 -2.750693 90) (size 0.3048 0.5588) (layers "F.Cu" "F.Paste" "F.Mask") (tstamp e0b17557-2793-40b8-938c-3b41d9c8973a))
  (pad "2" smd rect (at -3.375 -2.250567 90) (size 0.3048 0.5588) (layers "F.Cu" "F.Paste" "F.Mask") (tstamp 64110ddc-ff1e-47ec-ab85-a28e7bae22d6))
  (pad "3" smd rect (at -3.375 -1.750441 90) (size 0.3048 0.5588) (layers "F.Cu" "F.Paste" "F.Mask") (tstamp e54daaf7-63a6-4626-ba1f-b1eda0175e49))
  (pad "4" smd rect (at -3.375 -1.250315 90) (size 0.3048 0.5588) (layers "F.Cu" "F.Paste" "F.Mask") (tstamp efb75f69-02fb-417d-bf0d-4913c60de527))
  (pad "5" smd rect (at -3.375 -0.750189 90) (size 0.3048 0.5588) (layers "F.Cu" "F.Paste" "F.Mask") (tstamp 4acdc1f8-fa3e-4fde-80eb-615f07a717a8))
  (pad "6" smd rect (at -3.375 -0.250063 90) (size 0.3048 0.5588) (layers "F.Cu" "F.Paste" "F.Mask") (tstamp f231041b-336c-4b9b-9f86-123f9dc12d97))
  (pad "7" smd rect (at -3.375 0.250063 90) (size 0.3048 0.5588) (layers "F.Cu" "F.Paste" "F.Mask") (tstamp e2bc08e3-9774-4310-bb9d-94b123c6f3ab))
  (pad "8" smd rect (at -3.375 0.750189 90) (size 0.3048 0.5588) (layers "F.Cu" "F.Paste" "F.Mask") (tstamp 5ce46d3d-fdd8-4da3-a55e-fbdf29d48123))
  (pad "9" smd rect (at -3.375 1.250315 90) (size 0.3048 0.5588) (layers "F.Cu" "F.Paste" "F.Mask") (tstamp bbe736ba-72b3-4b0f-8f28-b8b9a7812b71))
  (pad "10" smd rect (at -3.375 1.750441 90) (size 0.3048 0.5588) (layers "F.Cu" "F.Paste" "F.Mask") (tstamp 5a183ca8-3aeb-43ff-b515-80b406aade00))
  (pad "11" smd rect (at -3.375 2.250567 90) (size 0.3048 0.5588) (layers "F.Cu" "F.Paste" "F.Mask") (tstamp e6482501-3313-457e-81eb-ccd51c15e6bf))
  (pad "12" smd rect (at -3.375 2.750693 90) (size 0.3048 0.5588) (layers "F.Cu" "F.Paste" "F.Mask") (tstamp 2a78269f-5283-4914-96bf-604b95e8eacc))
  (pad "13" smd rect (at -2.750693 3.375) (size 0.3048 0.5588) (layers "F.Cu" "F.Paste" "F.Mask") (tstamp d15dd58e-76a8-4a86-bf2e-7e1c057889fe))
  (pad "14" smd rect (at -2.250567 3.375) (size 0.3048 0.5588) (layers "F.Cu" "F.Paste" "F.Mask") (tstamp fbeaeb38-eb42-4fdd-a884-1b897d4abaef))
  (pad "15" smd rect (at -1.750441 3.375) (size 0.3048 0.5588) (layers "F.Cu" "F.Paste" "F.Mask") (tstamp 1f817199-06d7-4e05-a7d3-eee274d6cf95))
  (pad "16" smd rect (at -1.250315 3.375) (size 0.3048 0.5588) (layers "F.Cu" "F.Paste" "F.Mask") (tstamp 794e8c26-53e7-49ae-9d55-cbfe4ad5f40a))
  (pad "17" smd rect (at -0.750189 3.375) (size 0.3048 0.5588) (layers "F.Cu" "F.Paste" "F.Mask") (tstamp 9fd19139-adbc-41aa-8bcf-e1f4d9d99653))
  (pad "18" smd rect (at -0.250063 3.375) (size 0.3048 0.5588) (layers "F.Cu" "F.Paste" "F.Mask") (tstamp 527cb22a-7e33-4cab-9561-11aa15db26ff))
  (pad "19" smd rect (at 0.250063 3.375) (size 0.3048 0.5588) (layers "F.Cu" "F.Paste" "F.Mask") (tstamp e034c255-51be-46d1-b38d-6383afcd4315))
  (pad "20" smd rect (at 0.750189 3.375) (size 0.3048 0.5588) (layers "F.Cu" "F.Paste" "F.Mask") (tstamp 4e250076-83f9-4186-a431-38a97a5f0cd6))
  (pad "21" smd rect (at 1.250315 3.375) (size 0.3048 0.5588) (layers "F.Cu" "F.Paste" "F.Mask") (tstamp 97e77020-493b-4e02-bb8c-2f8be737883f))
  (pad "22" smd rect (at 1.750441 3.375) (size 0.3048 0.5588) (layers "F.Cu" "F.Paste" "F.Mask") (tstamp 3af3e521-42f6-44d3-afe0-216b26a54ff6))
  (pad "23" smd rect (at 2.250567 3.375) (size 0.3048 0.5588) (layers "F.Cu" "F.Paste" "F.Mask") (tstamp 781317a1-93cd-4fe7-ab34-c482ef165d31))
  (pad "24" smd rect (at 2.750693 3.375) (size 0.3048 0.5588) (layers "F.Cu" "F.Paste" "F.Mask") (tstamp ac964def-301e-4952-bb3b-cd9cbd1eebb9))
  (pad "25" smd rect (at 3.375 2.750693 90) (size 0.3048 0.5588) (layers "F.Cu" "F.Paste" "F.Mask") (tstamp 9888ccfe-5c4c-47f1-9166-d9f5b3ea6045))
  (pad "26" smd rect (at 3.375 2.250567 90) (size 0.3048 0.5588) (layers "F.Cu" "F.Paste" "F.Mask") (tstamp b8a7dfa0-76dc-4e1f-af32-b33e0390c139))
  (pad "27" smd rect (at 3.375 1.750441 90) (size 0.3048 0.5588) (layers "F.Cu" "F.Paste" "F.Mask") (tstamp e946a36e-67b2-419a-ac8a-126b54b7a366))
  (pad "28" smd rect (at 3.375 1.250315 90) (size 0.3048 0.5588) (layers "F.Cu" "F.Paste" "F.Mask") (tstamp b3b25ce8-ea5b-4bc1-92a6-7920184d8df8))
  (pad "29" smd rect (at 3.375 0.750189 90) (size 0.3048 0.5588) (layers "F.Cu" "F.Paste" "F.Mask") (tstamp 1d9209fc-3765-4521-b521-6639cb8a26bf))
  (pad "30" smd rect (at 3.375 0.250063 90) (size 0.3048 0.5588) (layers "F.Cu" "F.Paste" "F.Mask") (tstamp 39f52ab9-c674-42ba-855d-6ddbcf239e57))
  (pad "31" smd rect (at 3.375 -0.250063 90) (size 0.3048 0.5588) (layers "F.Cu" "F.Paste" "F.Mask") (tstamp 3869714a-3af0-42a8-92c5-c4f5f72169fd))
  (pad "32" smd rect (at 3.375 -0.750189 90) (size 0.3048 0.5588) (layers "F.Cu" "F.Paste" "F.Mask") (tstamp 8aabc963-fd1e-4bc5-bb39-9c9cf0d7ca64))
  (pad "33" smd rect (at 3.375 -1.250315 90) (size 0.3048 0.5588) (layers "F.Cu" "F.Paste" "F.Mask") (tstamp d45184c7-4df2-4566-a278-5b4f053d7f9d))
  (pad "34" smd rect (at 3.375 -1.750441 90) (size 0.3048 0.5588) (layers "F.Cu" "F.Paste" "F.Mask") (tstamp a2c9cef8-d59d-4cb3-af30-3dd0007fc3a1))
  (pad "35" smd rect (at 3.375 -2.250567 90) (size 0.3048 0.5588) (layers "F.Cu" "F.Paste" "F.Mask") (tstamp 8f9f70f3-90e0-40e5-9682-1a6ce07ed4aa))
  (pad "36" smd rect (at 3.375 -2.750693 90) (size 0.3048 0.5588) (layers "F.Cu" "F.Paste" "F.Mask") (tstamp 330cbf5e-b44e-4df4-8ff2-49a768395398))
  (pad "37" smd rect (at 2.750693 -3.375) (size 0.3048 0.5588) (layers "F.Cu" "F.Paste" "F.Mask") (tstamp a3fab5e1-6a3d-45a5-9032-bdd0dfff7b90))
  (pad "38" smd rect (at 2.250567 -3.375) (size 0.3048 0.5588) (layers "F.Cu" "F.Paste" "F.Mask") (tstamp 274d2a99-638b-4480-8249-4d8062bac439))
  (pad "39" smd rect (at 1.750441 -3.375) (size 0.3048 0.5588) (layers "F.Cu" "F.Paste" "F.Mask") (tstamp c904cd6a-2876-43ea-86ff-647dba742e1e))
  (pad "40" smd rect (at 1.250315 -3.375) (size 0.3048 0.5588) (layers "F.Cu" "F.Paste" "F.Mask") (tstamp f9bdeceb-218c-4c22-85af-ef871dbbf855))
  (pad "41" smd rect (at 0.750189 -3.375) (size 0.3048 0.5588) (layers "F.Cu" "F.Paste" "F.Mask") (tstamp b08d76c9-0c1d-4e22-bfdb-f517b0226c34))
  (pad "42" smd rect (at 0.250063 -3.375) (size 0.3048 0.5588) (layers "F.Cu" "F.Paste" "F.Mask") (tstamp e2d1c619-c8b4-45bd-a68e-62452de00d21))
  (pad "43" smd rect (at -0.250063 -3.375) (size 0.3048 0.5588) (layers "F.Cu" "F.Paste" "F.Mask") (tstamp d0908af2-7402-4a7b-81ca-bcf9c45f8b44))
  (pad "44" smd rect (at -0.750189 -3.375) (size 0.3048 0.5588) (layers "F.Cu" "F.Paste" "F.Mask") (tstamp f228d0b8-6193-4b01-bde8-b5aa48a06a4d))
  (pad "45" smd rect (at -1.250315 -3.375) (size 0.3048 0.5588) (layers "F.Cu" "F.Paste" "F.Mask") (tstamp bb5a72dd-4ae0-443a-a555-e26e42998b39))
  (pad "46" smd rect (at -1.750441 -3.375) (size 0.3048 0.5588) (layers "F.Cu" "F.Paste" "F.Mask") (tstamp 79b7ac42-2fa6-4250-87bc-3f6d025f2b08))
  (pad "47" smd rect (at -2.250567 -3.375) (size 0.3048 0.5588) (layers "F.Cu" "F.Paste" "F.Mask") (tstamp f7ed73da-c6e3-4daa-953c-e3cc3a1f7346))
  (pad "48" smd rect (at -2.750693 -3.375) (size 0.3048 0.5588) (layers "F.Cu" "F.Paste" "F.Mask") (tstamp bc4163e4-d633-4a2e-a19b-47235133df19))
  (pad "49" smd rect (at 0 0) (size 5.588 5.588) (layers "F.Cu" "F.Mask") (tstamp e83330c6-9165-48d9-a496-564eca93ebc4))
  (model "${KIPRJMOD}/libs/QFN50P700X700X60-49N.step"
    (offset (xyz 0 0 0))
    (scale (xyz 1 1 1))
    (rotate (xyz -90 0 0))
  )
)
