(footprint "XTAL_NX2012SA-32.768K-STD-MUB-1" (version 20211014) (generator pcbnew)
  (layer "F.Cu")
  (tedit 6220AA7D)
  (attr through_hole)
  (fp_text reference "REF**" (at -0.254315 -1.197694) (layer "F.SilkS")
    (effects (font (size 0.320398 0.320398) (thickness 0.15)))
    (tstamp de759948-161e-4bbe-93f4-670a576de500)
  )
  (fp_text value "XTAL_NX2012SA-32.768K-STD-MUB-1" (at 5.03797 1.102716) (layer "F.Fab")
    (effects (font (size 0.320558 0.320558) (thickness 0.15)))
    (tstamp caa4298d-02d5-4f80-9b9d-47f1bd739f15)
  )
  (fp_line (start 1.5 -0.875) (end -1.5 -0.875) (layer "F.CrtYd") (width 0.05) (tstamp 3c706a30-a30f-400b-bdc7-8a33c80e630b))
  (fp_line (start -1.5 0.875) (end 1.5 0.875) (layer "F.CrtYd") (width 0.05) (tstamp 5b9a3805-90b0-44a6-a86e-5b6c07ff9037))
  (fp_line (start 1.5 0.875) (end 1.5 -0.875) (layer "F.CrtYd") (width 0.05) (tstamp d384d600-b3e0-4fe0-b0f2-7b0b50bd1c21))
  (fp_line (start -1.5 -0.875) (end -1.5 0.875) (layer "F.CrtYd") (width 0.05) (tstamp f294a229-6752-4bf0-afcf-4e666738928a))
  (fp_line (start 1.025 -0.6) (end -1.025 -0.6) (layer "F.Fab") (width 0.127) (tstamp 4ce03590-e0e1-4703-b46c-7b385c2aeba2))
  (fp_line (start -1.025 0.6) (end 1.025 0.6) (layer "F.Fab") (width 0.127) (tstamp 8b398452-7864-4ae1-87b2-f3c31f993db8))
  (fp_line (start -1.025 -0.6) (end -1.025 0.6) (layer "F.Fab") (width 0.127) (tstamp 9a87bfc4-c304-4037-8ceb-f6545574a9e8))
  (fp_line (start 1.025 0.6) (end 1.025 -0.6) (layer "F.Fab") (width 0.127) (tstamp bea25862-abba-489f-bceb-f737bbb678c5))
  (pad "1" smd rect (at -0.75 0) (size 1 1.25) (layers "F.Cu" "F.Paste" "F.Mask") (tstamp eea8afc9-500b-4e96-9580-ce3dbde5cd58))
  (pad "2" smd rect (at 0.75 0) (size 1 1.25) (layers "F.Cu" "F.Paste" "F.Mask") (tstamp 0a742bb2-0657-47bc-9dea-e70308e1113a))
)
